<?xml version="1.0" encoding="UTF-8" standalone="no"?>
<!-- Created with Inkscape (http://www.inkscape.org/) -->

<svg
   width="206.49692mm"
   height="142.06674mm"
   viewBox="0 0 206.49692 142.06674"
   version="1.1"
   id="svg23089"
   xml:space="preserve"
   sodipodi:docname="runtime_dark.svg"
   inkscape:version="1.3.2 (091e20ef0f, 2023-11-25)"
   inkscape:export-filename="runtime_dark.png"
   inkscape:export-xdpi="157.44545"
   inkscape:export-ydpi="157.44545"
   xmlns:inkscape="http://www.inkscape.org/namespaces/inkscape"
   xmlns:sodipodi="http://sodipodi.sourceforge.net/DTD/sodipodi-0.dtd"
   xmlns:xlink="http://www.w3.org/1999/xlink"
   xmlns="http://www.w3.org/2000/svg"
   xmlns:svg="http://www.w3.org/2000/svg"><sodipodi:namedview
     id="namedview137"
     pagecolor="#000000"
     bordercolor="#666666"
     borderopacity="1.0"
     inkscape:showpageshadow="2"
     inkscape:pageopacity="0"
     inkscape:pagecheckerboard="true"
     inkscape:deskcolor="#d1d1d1"
     inkscape:document-units="mm"
     showgrid="false"
     inkscape:zoom="1.3884731"
     inkscape:cx="341.3822"
     inkscape:cy="209.94285"
     inkscape:window-width="2560"
     inkscape:window-height="1371"
     inkscape:window-x="0"
     inkscape:window-y="32"
     inkscape:window-maximized="1"
     inkscape:current-layer="layer1"
     showguides="true"><sodipodi:guide
       position="103.30177,42.333323"
       orientation="1,0"
       id="guide601"
       inkscape:locked="false" /></sodipodi:namedview><defs
     id="defs23086"><linearGradient
       id="linearGradient42412"><stop
         style="stop-color:#ffffff;stop-opacity:1;"
         offset="0"
         id="stop42410" /></linearGradient><marker
       style="overflow:visible"
       id="Stop"
       refX="0"
       refY="0"
       orient="auto"
       markerWidth="1"
       markerHeight="8"
       viewBox="0 0 1 8"
       preserveAspectRatio="xMidYMid"><path
         style="fill:none;stroke:context-stroke;stroke-width:1"
         d="M 0,4 V -4"
         id="path171" /></marker><marker
       style="overflow:visible"
       id="Arrow4"
       refX="0"
       refY="0"
       orient="auto-start-reverse"
       markerWidth="5"
       markerHeight="6"
       viewBox="0 0 5 6"
       preserveAspectRatio="xMidYMid"><path
         style="fill:context-stroke;fill-rule:evenodd;stroke:none"
         d="m 1,0 -3,3 h -2 l 3,-3 -3,-3 h 2 z"
         id="path1741" /></marker><marker
       style="overflow:visible"
       id="Arrow4-7"
       refX="0"
       refY="0"
       orient="auto-start-reverse"
       markerWidth="5"
       markerHeight="6"
       viewBox="0 0 5 6"
       preserveAspectRatio="xMidYMid"><path
         style="fill:context-stroke;fill-rule:evenodd;stroke:none"
         d="m 1,0 -3,3 h -2 l 3,-3 -3,-3 h 2 z"
         id="path1741-6" /></marker><marker
       style="overflow:visible"
       id="Arrow4-7-3"
       refX="0"
       refY="0"
       orient="auto-start-reverse"
       markerWidth="5"
       markerHeight="6"
       viewBox="0 0 5 6"
       preserveAspectRatio="xMidYMid"><path
         style="fill:context-stroke;fill-rule:evenodd;stroke:none"
         d="m 1,0 -3,3 h -2 l 3,-3 -3,-3 h 2 z"
         id="path1741-6-7" /></marker><marker
       style="overflow:visible"
       id="Arrow4-7-3-5"
       refX="0"
       refY="0"
       orient="auto-start-reverse"
       markerWidth="5"
       markerHeight="6"
       viewBox="0 0 5 6"
       preserveAspectRatio="xMidYMid"><path
         style="fill:context-stroke;fill-rule:evenodd;stroke:none"
         d="m 1,0 -3,3 h -2 l 3,-3 -3,-3 h 2 z"
         id="path1741-6-7-4" /></marker><linearGradient
       xlink:href="#linearGradient42412"
       id="linearGradient42414"
       x1="-3.2467349"
       y1="74.888611"
       x2="51.29958"
       y2="74.888611"
       gradientUnits="userSpaceOnUse" /><g
       id="g847"><g
         id="glyph-0-0" /><g
         id="glyph-0-1"><path
           d="m 1.578125,-7.125 c 0,-0.171875 0,-0.359375 -0.1875,-0.359375 -0.203125,0 -0.203125,0.1875 -0.203125,0.359375 v 9.265625 c 0,0.171875 0,0.359375 0.203125,0.359375 0.1875,0 0.1875,-0.1875 0.1875,-0.359375 z m 0,0"
           id="path841" /></g><g
         id="glyph-0-2"><path
           d="M 2.71875,-2.328125 C 2.765625,-2.4375 2.765625,-2.46875 2.765625,-2.5 c 0,-0.015625 0,-0.046875 -0.046875,-0.15625 L 0.984375,-7.25 c -0.0625,-0.171875 -0.125,-0.234375 -0.234375,-0.234375 -0.109375,0 -0.203125,0.09375 -0.203125,0.203125 0,0.03125 0,0.046875 0.046875,0.15625 L 2.359375,-2.5 0.59375,2.109375 C 0.546875,2.21875 0.546875,2.25 0.546875,2.296875 0.546875,2.40625 0.640625,2.5 0.75,2.5 0.875,2.5 0.921875,2.390625 0.953125,2.296875 Z m 0,0"
           id="path844" /></g></g><clipPath
       id="clip-0"><path
         clip-rule="nonzero"
         d="M 1,0 H 6 V 9.964844 H 1 Z m 0,0"
         id="path849" /></clipPath><clipPath
       clipPathUnits="userSpaceOnUse"
       id="clipPath547"><path
         clip-rule="nonzero"
         d="M 955.54821,175.25339 H 1344.9459 V 446.00072 H 955.54821 Z m 0,0"
         id="path550"
         style="stroke-width:1.3909" /></clipPath></defs><g
     id="layer1"
     transform="translate(10.463179,-50.463386)"><g
       id="path18504"><g
         id="g2"><path
           style="color:#000000;fill:#0d98ba;-inkscape-stroke:none"
           d="m 19.541016,97.824219 v 1.099609 h 8.800781 v -1.099609 z"
           id="path3" /><path
           style="color:#000000;fill:#0d98ba;fill-rule:evenodd;-inkscape-stroke:none"
           d="m 61.966634,61.449093 -3.299989,3.300012 -2.2,7e-6 3.299989,-3.300011 -3.300011,-3.299989 2.2,-8e-6 z"
           id="path2" /></g><path
         style="color:#000000;fill:#0d98ba;stroke-linecap:round;stroke-linejoin:round;-inkscape-stroke:none;paint-order:markers stroke fill"
         d="M 60.867187,60.898437 C 40.176746,60.898509 23.392359,77.684549 23.392578,98.375 A 0.55000001,0.55000001 0 0 0 23.941406,98.923828 0.55000001,0.55000001 0 0 0 24.492187,98.375 C 24.491975,78.279035 40.771232,62.000069 60.867187,62 a 0.55000001,0.55000001 0 0 0 0.548829,-0.550781 0.55000001,0.55000001 0 0 0 -0.548829,-0.550782 z"
         id="path4" /></g><g
       id="path18504-9"><g
         id="g5"><path
           style="color:#000000;fill:#00a59c;-inkscape-stroke:none"
           d="m 123.79297,57.048828 v 8.800781 h 1.09961 v -8.800781 z"
           id="path6" /><path
           style="color:#000000;fill:#00a59c;fill-rule:evenodd;-inkscape-stroke:none"
           d="m 161.26761,99.473983 -3.30001,-3.299989 -1e-5,-2.2 3.30002,3.299989 3.29998,-3.300011 1e-5,2.2 z"
           id="path5" /></g><path
         style="color:#000000;fill:#00a59c;stroke-linecap:round;stroke-linejoin:round;-inkscape-stroke:none;paint-order:markers stroke fill"
         d="M 124.3418,60.898437 A 0.55000001,0.55000001 0 0 0 123.79297,61.449219 0.55000001,0.55000001 0 0 0 124.3418,62 c 20.09595,-2.13e-4 36.37493,16.277083 36.375,36.373047 a 0.55000001,0.55000001 0 0 0 0.55078,0.550781 0.55000001,0.55000001 0 0 0 0.55078,-0.550781 c -7e-5,-20.69045 -16.78612,-37.474829 -37.47656,-37.47461 z"
         id="path7" /></g><g
       id="path18504-9-2"><g
         id="g8"><path
           style="color:#000000;fill:#00a59c;-inkscape-stroke:none"
           d="m 156.86719,133.9668 v 1.09961 h 8.80078 v -1.09961 z"
           id="path9" /><path
           style="color:#000000;fill:#00a59c;fill-rule:evenodd;-inkscape-stroke:none"
           d="m 123.24222,171.44252 3.29999,-3.30001 2.2,-10e-6 -3.29999,3.30002 3.30001,3.29998 -2.2,1e-5 z"
           id="path8" /></g><path
         style="color:#000000;fill:#00a59c;stroke-linecap:round;stroke-linejoin:round;-inkscape-stroke:none;paint-order:markers stroke fill"
         d="m 161.26758,133.9668 a 0.55000001,0.55000001 0 0 0 -0.55078,0.55078 c 2e-4,20.09595 -16.27905,36.37493 -36.375,36.375 a 0.55000001,0.55000001 0 0 0 -0.54883,0.55078 0.55000001,0.55000001 0 0 0 0.54883,0.54883 c 20.69044,-7e-5 37.47482,-16.78417 37.47461,-37.47461 a 0.55000001,0.55000001 0 0 0 -0.54883,-0.55078 z"
         id="path10" /></g><g
       id="path18504-9-2-4"><g
         id="g11"><path
           style="color:#000000;fill:#0d98ba;fill-rule:evenodd;-inkscape-stroke:none"
           d="m 61.966634,171.44251 -3.299966,3.30003 -2.2,3e-5 3.299966,-3.30004 -3.300034,-3.29996 2.2,-3e-5 z"
           id="path12" /><path
           style="color:#000000;fill:#0d98ba;fill-rule:evenodd;-inkscape-stroke:none"
           d="m 23.94124,133.41764 3.300012,3.29999 7e-6,2.2 -3.300011,-3.29999 -3.299989,3.30001 -8e-6,-2.2 z"
           id="path11" /></g><path
         style="color:#000000;fill:#0d98ba;stroke-linecap:round;stroke-linejoin:round;-inkscape-stroke:none;paint-order:markers stroke fill"
         d="m 23.941406,133.9668 a 0.55000001,0.55000001 0 0 0 -0.550781,0.55078 c 7.1e-5,20.69044 16.78612,37.47482 37.476562,37.47461 a 0.55000001,0.55000001 0 0 0 0.548829,-0.54883 0.55000001,0.55000001 0 0 0 -0.548829,-0.55078 c -20.095956,2.1e-4 -36.374931,-16.27905 -36.375,-36.375 a 0.55000001,0.55000001 0 0 0 -0.550781,-0.55078 z"
         id="path13" /></g><g
       id="g21620"
       transform="translate(-25.950156,26.455664)"><g
         id="g21608"><g
           fill="#000000"
           fill-opacity="1"
           id="g858-2"
           transform="matrix(0.26458332,0,0,0.26458332,21.599776,107.63358)"><g
             id="use854-7"
             transform="matrix(11.812853,0,0,11.812853,-17.485947,-34.471374)"
             style="fill:#0d98ba;fill-opacity:1"><path
               d="m 1.578125,-7.125 c 0,-0.171875 0,-0.359375 -0.1875,-0.359375 -0.203125,0 -0.203125,0.1875 -0.203125,0.359375 v 9.265625 c 0,0.171875 0,0.359375 0.203125,0.359375 0.1875,0 0.1875,-0.1875 0.1875,-0.359375 z m 0,0"
               id="path7098-0"
               style="fill:#0d98ba;fill-opacity:1" /></g><g
             id="use856-9"
             transform="matrix(11.812853,0,0,11.812853,166.50453,-34.471378)"
             style="fill:#00a59c;fill-opacity:1"><path
               d="M 2.71875,-2.328125 C 2.765625,-2.4375 2.765625,-2.46875 2.765625,-2.5 c 0,-0.015625 0,-0.046875 -0.046875,-0.15625 L 0.984375,-7.25 c -0.0625,-0.171875 -0.125,-0.234375 -0.234375,-0.234375 -0.109375,0 -0.203125,0.09375 -0.203125,0.203125 0,0.03125 0,0.046875 0.046875,0.15625 L 2.359375,-2.5 0.59375,2.109375 C 0.546875,2.21875 0.546875,2.25 0.546875,2.296875 0.546875,2.40625 0.640625,2.5 0.75,2.5 0.875,2.5 0.921875,2.390625 0.953125,2.296875 Z m 0,0"
               id="path7076-3"
               style="fill:#00a59c;fill-opacity:1" /></g><g
             aria-label="ket"
             id="text3896"
             style="font-size:117.537px;line-height:1.25;font-family:'Merriweather Sans';-inkscape-font-specification:'Merriweather Sans';fill:#40e0d0;fill-opacity:1;stroke-width:2.9384"><path
               d="m 59.189939,-82.070687 -43.606228,43.371154 1.057833,-2.468277 0.235074,11.636163 v 12.811533 H 7.7087315 v -32.087601 -63.234905 h 9.1678865 v 54.654703 l -0.352611,11.518627 -2.585814,-1.645518 33.850656,-34.555879 z m -32.792824,30.794694 6.582072,-6.111924 29.03164,40.667803 H 50.962348 Z"
               style="font-weight:300;-inkscape-font-specification:'Merriweather Sans Light';fill:#40e0d0;fill-opacity:1"
               id="path7732" /><path
               d="m 96.684217,-15.779818 q -13.751829,0 -21.097892,-8.815275 -7.346063,-8.874044 -7.346063,-24.565233 0,-9.81434 3.408573,-17.395477 3.408573,-7.639905 9.931877,-11.988774 6.523304,-4.407638 15.926264,-4.466406 5.230394,-0.117537 9.461724,1.645518 4.29011,1.704286 7.34607,4.995322 3.11473,3.232268 4.81901,7.816211 1.76306,4.525175 1.8806,10.108182 0,3.055962 -0.0588,5.524239 -0.0588,2.409509 -0.41138,4.466407 H 73.999575 l 0.822759,-6.464536 h 37.141696 q 0.35261,-5.994387 -0.99907,-10.813404 -1.2929,-4.819017 -4.70148,-7.639905 -3.40857,-2.820888 -9.344189,-2.820888 -5.641776,0 -10.108182,3.055962 -4.466406,2.997194 -6.993452,9.638034 -2.468277,6.640841 -2.174435,17.395477 0.293843,8.403895 3.114731,13.457986 2.820888,5.054092 7.581137,7.346063 4.760248,2.233203 10.813404,2.233203 2.997196,0 6.405766,-0.76399 3.46734,-0.763991 6.46454,-1.880592 3.05596,-1.17537 4.76024,-2.291972 l 1.99813,6.229461 q -2.11566,1.763055 -5.75931,3.114731 -3.64365,1.351675 -7.99252,2.115666 -4.2901,0.76399 -8.345123,0.76399 z"
               style="font-weight:300;-inkscape-font-specification:'Merriweather Sans Light';fill:#40e0d0;fill-opacity:1"
               id="path7734" /><path
               d="m 155.68783,-15.779818 q -3.99626,0 -7.40484,-1.17537 -3.40857,-1.234138 -5.46547,-4.760248 -2.05689,-3.52611 -2.05689,-10.519562 V -74.90093 h -9.05035 v -5.289165 q 3.1735,-0.881528 6.17069,-1.469213 3.05596,-0.646453 3.81995,-2.644582 0.35261,-0.999065 0.76399,-3.291036 0.47015,-2.35074 0.9403,-4.936554 0.52892,-2.644583 1.1166,-4.583944 h 5.75931 v 14.9272 h 20.33391 v 7.287294 h -20.33391 v 37.25923 q 0,6.523303 0.82276,9.520497 0.82276,2.938425 2.70335,3.761184 1.93936,0.822759 5.17163,0.822759 1.99813,0 4.46641,-0.470148 2.46828,-0.528916 4.58394,-1.234138 2.17444,-0.763991 3.29104,-1.469213 l 1.64552,5.524239 q -1.64552,1.351676 -4.58395,2.585814 -2.93842,1.234139 -6.347,1.998129 -3.3498,0.822759 -6.34699,0.822759 z"
               style="font-weight:300;-inkscape-font-specification:'Merriweather Sans Light';fill:#40e0d0;fill-opacity:1"
               id="path7736" /></g></g></g></g><g
       id="g22652"
       transform="translate(-8.5723889,26.963231)"
       style="stroke:#0f1f2e;stroke-opacity:1"><path
         fill="none"
         stroke-width="6"
         stroke-linecap="butt"
         stroke-linejoin="miter"
         stroke="#000000"
         stroke-opacity="1"
         stroke-miterlimit="10"
         d="m 1302.0018,400.99752 c 22.488,-2.47754 38.5268,-21.20579 35.8265,-41.84653 -2.7003,-20.62987 -23.1182,-35.34842 -45.6008,-32.88174 -0.25,-30.81713 -23.7975,-57.34746 -56.6466,-63.80753 -32.8383,-6.46008 -66.171,8.88872 -80.1615,36.90774 -10.372,-10.87727 -26.84,-14.9902 -41.7867,-10.42088 -14.9413,4.56932 -25.4437,16.92986 -26.6227,31.34415 -24.281,-0.82042 -44.699,16.5767 -45.6009,38.85826 -0.8965,22.287 18.06,41.02068 42.3518,41.84653 h 42.2963 z"
         transform="matrix(0.19022457,0,0,0.19022457,-56.793296,25.78554)"
         id="path1818"
         clip-path="url(#clipPath547)"
         sodipodi:nodetypes="ccccccccccc"
         style="stroke:#f4f8ff;stroke-opacity:1" /><path
         fill-rule="nonzero"
         fill="#000000"
         fill-opacity="1"
         d="m 169.08852,99.393447 h 1.35082 v -1.010791 h -1.35082 z m 2.02468,-1.348754 v 1.686719 c 0,0.186034 -0.1509,0.336928 -0.33693,0.336928 h -2.02365 c -0.18707,0 -0.33693,-0.150894 -0.33693,-0.336928 v -1.686719 c 0,-0.185002 0.14986,-0.336931 0.33693,-0.336931 h 2.02365 c 0.18603,0 0.33693,0.151929 0.33693,0.336931 z m -5.73402,-12.813688 h -0.67282 v 1.684652 c 0,0.187068 0.14986,0.338997 0.33693,0.338997 h 1.01182 v -0.674893 h -0.67593 z m 8.76949,0 v 1.348756 h -0.67489 v 0.674893 h 1.01182 c 0.18604,0 0.33694,-0.151929 0.33694,-0.338997 v -1.684652 z m -7.75766,9.779248 h 6.74584 v -0.674894 h -6.74584 z m 0,-5.05809 h 6.74584 V 89.27727 h -6.74584 z m 5.39709,3.709334 h 0.67386 v -3.036506 h -0.67386 z m -1.34876,0 h 0.67386 v -3.036506 h -0.67386 z m -2.02365,0 h 0.67283 v -3.036506 h -0.67283 z m -1.34875,0 h 0.67282 v -3.036506 h -0.67282 z m 5.39502,-5.058089 v -3.036507 h -0.67386 v 3.373438 h 0.67386 z m -2.02262,0.336931 h 0.67386 v -3.373438 h -0.67386 z m -0.33796,8.093564 h 0.67489 v -1.686719 h -0.67489 z m -1.34876,0 h 0.6749 v -1.686719 h -0.6749 z m -0.33693,-8.093564 h 0.67283 v -3.373438 h -0.67283 z m -0.67593,0 h -0.67282 v -3.373438 h 0.67282 z m 0,0"
         id="path1856"
         style="stroke-width:0.264583;stroke:#f4f8ff;stroke-opacity:1;fill:none" /></g><g
       id="g15167"
       transform="matrix(0.26458333,0,0,0.26458333,71.437761,150.1968)"><path
         id="rect15163"
         style="fill:none"
         d="M 0,0 H 160 V 160 H 0 Z" /><path
         d="m 104.37,113.18 c -5.55,0.01 -9.52,-4.38 -9.52,-9.38 0,-3.94 3.45,-9.05 9.52,-9.05 4.33,0 8.91,3.28 8.91,9.05 0,5 -3.7,9.38 -8.91,9.38 z m 19.29,10.47 V 35.98 H 37.38 v 87.67 z m -89.01,9.87 c -3.71,0 -7.15,-2.41 -7.15,-7.04 V 33.26 c -0.02,-5.07 3.93,-7.15 6.99,-7.15 h 91.93 c 4.26,0 7.03,2.8 7.03,7.23 v 92.63 c 0.09,4.74 -2.65,7.55 -7.43,7.55 z m 105.98,-10.64 v -9.42 H 160 v 9.42 z m 0,-18.93 V 94.48 H 160 v 9.47 z m 0,-18.31 V 76.42 H 160 v 9.22 z m 0,-18.1 V 58.1 H 160 v 9.44 z m 0,-18.93 V 39.16 H 160 v 9.45 z M 0,48.61 v -9.45 h 19.46 v 9.45 z M 0,67.54 V 58.1 h 19.46 v 9.44 z m 0,18.1 v -9.22 h 19.46 v 9.22 z m 0,18.31 v -9.47 h 19.46 v 9.47 z m 0,18.93 v -9.42 h 19.46 v 9.42 z M 39.16,19.48 V 0 h 9.41 v 19.48 z m 18.84,0 V 0 h 9.47 v 19.48 z m 18.22,0 V 0 h 9.33 v 19.48 z m 18.08,0 V 0 h 9.33 v 19.48 z m 18.74,0 V 0 h 9.47 v 19.48 z m 0,140.52 v -19.69 h 9.47 V 160 Z m -18.74,0 v -19.69 h 9.33 V 160 Z m -18.08,0 v -19.69 h 9.33 V 160 Z M 58,160 v -19.69 h 9.47 V 160 Z m -18.84,0 v -19.69 h 9.41 V 160 Z"
         fill="#000000"
         stroke="none"
         pointer-events="all"
         id="path15165"
         style="fill:#ffffff" /></g><g
       aria-label="Quantum Code"
       id="text34416"
       style="font-size:10.5833px;line-height:1.25;text-align:center;text-anchor:middle;stroke:#0f1f2e;stroke-width:0.529167;stroke-linecap:round;stroke-linejoin:round;paint-order:markers stroke fill;stroke-opacity:1;fill:#f4f8ff;fill-opacity:1"><path
         d="m 145.11749,67.051679 q 0,0.920747 -0.254,1.672161 -0.24341,0.751414 -0.73025,1.269996 -0.48683,0.518582 -1.21708,0.761997 l 1.80975,1.883828 h -1.36525 l -1.46049,-1.703911 q -0.0635,0 -0.13759,0 -0.0635,0.01058 -0.127,0.01058 -0.88899,0 -1.54516,-0.275166 -0.65616,-0.285749 -1.09008,-0.793747 -0.43391,-0.518582 -0.64558,-1.238246 -0.21166,-0.719665 -0.21166,-1.598079 0,-1.164163 0.38099,-2.031993 0.381,-0.867831 1.15358,-1.354663 0.78317,-0.486831 1.9685,-0.486831 1.13241,0 1.90499,0.486831 0.77258,0.476249 1.16416,1.354663 0.40217,0.86783 0.40217,2.042577 z m -5.96898,0 q 0,0.952497 0.26458,1.640411 0.26458,0.687915 0.81492,1.05833 0.56091,0.370416 1.40757,0.370416 0.85725,0 1.397,-0.370416 0.55033,-0.370415 0.81491,-1.05833 0.26459,-0.687914 0.26459,-1.640411 0,-1.428746 -0.59267,-2.233077 -0.59266,-0.814914 -1.87324,-0.814914 -0.85725,0 -1.41816,0.370416 -0.55034,0.359832 -0.81492,1.047746 -0.26458,0.677332 -0.26458,1.629829 z"
         id="path533"
         style="stroke:#0f1f2e;stroke-opacity:1;fill:#f4f8ff;fill-opacity:1" /><path
         d="M 151.40397,65.167851 V 70.8405 h -0.762 l -0.13758,-0.751414 h -0.0423 q -0.17992,0.296332 -0.46567,0.486831 -0.28575,0.1905 -0.62441,0.275166 -0.33867,0.09525 -0.70908,0.09525 -0.67733,0 -1.143,-0.211666 -0.45508,-0.222249 -0.68791,-0.677331 -0.23284,-0.455082 -0.23284,-1.174747 v -3.714738 h 0.94192 v 3.651239 q 0,0.677331 0.30691,1.015996 0.30692,0.338666 0.9525,0.338666 0.635,0 0.99483,-0.232833 0.37042,-0.243415 0.51858,-0.698497 0.15875,-0.465666 0.15875,-1.12183 v -2.952741 z"
         id="path535"
         style="stroke:#0f1f2e;stroke-opacity:1;fill:#f4f8ff;fill-opacity:1" /><path
         d="m 155.35154,65.072602 q 1.03717,0 1.53458,0.455081 0.49742,0.455082 0.49742,1.449913 V 70.8405 h -0.67733 l -0.17992,-0.804331 h -0.0423 q -0.24342,0.306916 -0.508,0.518582 -0.254,0.201082 -0.59267,0.296332 -0.32808,0.09525 -0.80433,0.09525 -0.508,0 -0.92075,-0.179916 -0.40216,-0.179916 -0.63499,-0.550332 -0.23284,-0.380999 -0.23284,-0.952497 0,-0.846664 0.66675,-1.301746 0.66675,-0.465665 2.05316,-0.507998 l 0.96308,-0.03175 v -0.338665 q 0,-0.709082 -0.30691,-0.984247 -0.30692,-0.275166 -0.86783,-0.275166 -0.4445,0 -0.84667,0.137583 -0.40216,0.126999 -0.75141,0.296332 l -0.28575,-0.698498 q 0.37041,-0.201082 0.87841,-0.338665 0.508,-0.148166 1.05833,-0.148166 z m 0.27517,3.026823 q -1.05833,0.04233 -1.47108,0.338666 -0.40217,0.296332 -0.40217,0.836081 0,0.476248 0.28575,0.698497 0.29634,0.22225 0.75142,0.22225 0.71966,0 1.19591,-0.391582 0.47625,-0.402166 0.47625,-1.227663 v -0.507999 z"
         id="path537"
         style="stroke:#0f1f2e;stroke-opacity:1;fill:#f4f8ff;fill-opacity:1" /><path
         d="m 161.87086,65.062018 q 1.016,0 1.53458,0.497415 0.51858,0.486832 0.51858,1.587495 V 70.8405 h -0.92074 v -3.630072 q 0,-0.687914 -0.30692,-1.02658 -0.30691,-0.338666 -0.96308,-0.338666 -0.94191,0 -1.30174,0.529165 -0.35984,0.529165 -0.35984,1.523996 V 70.8405 h -0.93133 v -5.672649 h 0.75142 l 0.13758,0.772581 h 0.0529 q 0.1905,-0.296332 0.46566,-0.486832 0.28575,-0.201082 0.62442,-0.296332 0.33866,-0.09525 0.69849,-0.09525 z"
         id="path539"
         style="stroke:#0f1f2e;stroke-opacity:1;fill:#f4f8ff;fill-opacity:1" /><path
         d="m 167.57526,70.184335 q 0.21167,0 0.43392,-0.03175 0.22225,-0.04233 0.35983,-0.08467 V 70.777 q -0.14817,0.07408 -0.42333,0.116416 -0.27517,0.05292 -0.52917,0.05292 -0.4445,0 -0.82549,-0.148166 -0.37042,-0.15875 -0.60325,-0.539749 -0.23284,-0.380998 -0.23284,-1.068913 V 65.887519 H 164.9506 V 65.44302 l 0.81492,-0.370415 0.37041,-1.206497 h 0.55033 v 1.301746 h 1.64042 v 0.719665 h -1.64042 v 3.280823 q 0,0.518581 0.24342,0.77258 0.254,0.243416 0.64558,0.243416 z"
         id="path541"
         style="stroke:#0f1f2e;stroke-opacity:1;fill:#f4f8ff;fill-opacity:1" /><path
         d="M 174.24274,65.167851 V 70.8405 h -0.762 l -0.13758,-0.751414 h -0.0423 q -0.17992,0.296332 -0.46567,0.486831 -0.28575,0.1905 -0.62441,0.275166 -0.33867,0.09525 -0.70908,0.09525 -0.67733,0 -1.143,-0.211666 -0.45508,-0.222249 -0.68791,-0.677331 -0.23284,-0.455082 -0.23284,-1.174747 v -3.714738 h 0.94192 v 3.651239 q 0,0.677331 0.30691,1.015996 0.30692,0.338666 0.9525,0.338666 0.635,0 0.99483,-0.232833 0.37042,-0.243415 0.51858,-0.698497 0.15875,-0.465666 0.15875,-1.12183 v -2.952741 z"
         id="path543"
         style="stroke:#0f1f2e;stroke-opacity:1;fill:#f4f8ff;fill-opacity:1" /><path
         d="m 182.26488,65.062018 q 0.96309,0 1.43933,0.497415 0.47625,0.486832 0.47625,1.587495 V 70.8405 h -0.92074 v -3.651238 q 0,-0.666748 -0.28575,-1.005414 -0.27517,-0.338666 -0.86783,-0.338666 -0.8255,0 -1.18533,0.476249 -0.34925,0.476248 -0.34925,1.386412 V 70.8405 h -0.92075 v -3.651238 q 0,-0.444499 -0.127,-0.740831 -0.127,-0.306916 -0.381,-0.455082 -0.254,-0.148167 -0.65616,-0.148167 -0.5715,0 -0.89958,0.243416 -0.32809,0.232833 -0.47625,0.687915 -0.13758,0.455082 -0.13758,1.12183 V 70.8405 h -0.93134 v -5.672649 h 0.75142 l 0.13758,0.772581 h 0.0529 q 0.17991,-0.296332 0.43391,-0.486832 0.26459,-0.201082 0.58209,-0.296332 0.31749,-0.09525 0.65616,-0.09525 0.65616,0 1.09008,0.232833 0.4445,0.232832 0.64558,0.719664 h 0.0529 q 0.28575,-0.486832 0.77258,-0.719664 0.49741,-0.232833 1.04774,-0.232833 z"
         id="path545"
         style="stroke:#0f1f2e;stroke-opacity:1;fill:#f4f8ff;fill-opacity:1" /><path
         d="m 152.74806,77.243396 q -0.60325,0 -1.09008,0.211666 -0.48683,0.201083 -0.8255,0.603248 -0.33866,0.391582 -0.51858,0.96308 -0.17991,0.560915 -0.17991,1.269996 0,0.931331 0.28574,1.619245 0.29634,0.687915 0.86784,1.05833 0.58208,0.370416 1.44991,0.370416 0.49741,0 0.94191,-0.08467 0.4445,-0.08467 0.86783,-0.211666 v 0.825498 q -0.42333,0.158749 -0.87841,0.232832 -0.4445,0.07408 -1.06892,0.07408 -1.15358,0 -1.92616,-0.476248 -0.77258,-0.476249 -1.16416,-1.354662 -0.381,-0.878414 -0.381,-2.063744 0,-0.857247 0.23283,-1.566328 0.24342,-0.709081 0.6985,-1.227663 0.46567,-0.518582 1.143,-0.793747 0.67733,-0.28575 1.55574,-0.28575 0.58209,0 1.12183,0.116417 0.53975,0.116416 0.96308,0.328082 l -0.38099,0.804331 q -0.34925,-0.15875 -0.78317,-0.285749 -0.42333,-0.127 -0.93133,-0.127 z"
         id="path547"
         style="stroke:#0f1f2e;stroke-opacity:1;fill:#f4f8ff;fill-opacity:1" /><path
         d="m 161.00303,81.222717 q 0,0.709081 -0.1905,1.259412 -0.17991,0.539749 -0.52916,0.920748 -0.33867,0.380998 -0.83608,0.582081 -0.48683,0.190499 -1.09008,0.190499 -0.56092,0 -1.03716,-0.190499 -0.47625,-0.201083 -0.8255,-0.582081 -0.34925,-0.380999 -0.55033,-0.920748 -0.1905,-0.550331 -0.1905,-1.259412 0,-0.941914 0.3175,-1.587495 0.3175,-0.656165 0.91016,-0.99483 0.59266,-0.349249 1.40758,-0.349249 0.77258,0 1.35466,0.349249 0.59267,0.338665 0.92075,0.99483 0.33866,0.645581 0.33866,1.587495 z m -4.28623,0 q 0,0.666748 0.16933,1.164163 0.17992,0.486832 0.55033,0.751414 0.37042,0.264583 0.94192,0.264583 0.57149,0 0.94191,-0.264583 0.37041,-0.264582 0.53975,-0.751414 0.17991,-0.497415 0.17991,-1.164163 0,-0.677331 -0.17991,-1.15358 -0.17992,-0.476248 -0.55033,-0.730248 -0.35984,-0.264582 -0.94192,-0.264582 -0.86783,0 -1.25941,0.571498 -0.39158,0.571498 -0.39158,1.576912 z"
         id="path549"
         style="stroke:#0f1f2e;stroke-opacity:1;fill:#f4f8ff;fill-opacity:1" /><path
         d="m 164.48493,84.175457 q -1.05833,0 -1.69332,-0.730247 -0.635,-0.740831 -0.635,-2.201327 0,-1.460495 0.635,-2.201326 0.64558,-0.751414 1.70391,-0.751414 0.4445,0 0.77258,0.116416 0.32808,0.105833 0.5715,0.296333 0.24341,0.190499 0.41275,0.423331 h 0.0635 q -0.0106,-0.137582 -0.0423,-0.402165 -0.0212,-0.275166 -0.0212,-0.433915 v -2.264826 h 0.93133 v 8.043307 h -0.75142 l -0.13758,-0.761997 h -0.0423 q -0.16934,0.243416 -0.41275,0.444498 -0.24342,0.1905 -0.58208,0.306916 -0.32809,0.116416 -0.77259,0.116416 z m 0.14817,-0.77258 q 0.89958,0 1.25941,-0.486832 0.37042,-0.497415 0.37042,-1.492245 v -0.169333 q 0,-1.05833 -0.34925,-1.619245 -0.34925,-0.571498 -1.29116,-0.571498 -0.75142,0 -1.13242,0.603248 -0.37041,0.592665 -0.37041,1.598078 0,1.015997 0.37041,1.576912 0.381,0.560915 1.143,0.560915 z"
         id="path551"
         style="stroke:#0f1f2e;stroke-opacity:1;fill:#f4f8ff;fill-opacity:1" /><path
         d="m 171.17358,78.291143 q 0.73025,0 1.24883,0.317499 0.52916,0.317499 0.80433,0.89958 0.28575,0.571498 0.28575,1.344079 v 0.560915 h -3.88407 q 0.0212,0.96308 0.48683,1.471079 0.47625,0.497415 1.32291,0.497415 0.53975,0 0.9525,-0.09525 0.42333,-0.105833 0.86783,-0.296332 v 0.814914 q -0.43392,0.190499 -0.85725,0.275166 -0.42333,0.09525 -1.00541,0.09525 -0.80433,0 -1.42875,-0.328082 -0.61383,-0.328082 -0.96308,-0.973663 -0.33866,-0.656165 -0.33866,-1.598079 0,-0.93133 0.30691,-1.598078 0.3175,-0.666748 0.87842,-1.02658 0.57149,-0.359832 1.32291,-0.359833 z m -0.0106,0.761997 q -0.66674,0 -1.05833,0.433916 -0.38099,0.423332 -0.45508,1.185329 h 2.88924 q 0,-0.486832 -0.14816,-0.846664 -0.14817,-0.359832 -0.45508,-0.560915 -0.29634,-0.211666 -0.77259,-0.211666 z"
         id="path553"
         style="stroke:#0f1f2e;stroke-opacity:1;fill:#f4f8ff;fill-opacity:1" /></g><g
       aria-label="Measurement Results"
       id="text38600"
       style="font-size:10.5833px;line-height:1.25;text-align:center;text-anchor:middle;stroke:#0f1f2e;stroke-width:0.529167;stroke-linecap:round;stroke-linejoin:round;paint-order:markers stroke fill;fill:#f4f8ff;fill-opacity:1;stroke-opacity:1"><path
         d="m 130.89355,162.61116 -2.48707,-6.62515 h -0.0423 q 0.0212,0.21167 0.0318,0.53975 0.0212,0.32809 0.0317,0.71967 0.0106,0.381 0.0106,0.78316 v 4.58257 h -0.87842 v -7.55648 h 1.40758 l 2.32833,6.19123 h 0.0423 l 2.37066,-6.19123 h 1.397 v 7.55648 h -0.94192 v -4.64607 q 0,-0.37041 0.0106,-0.73025 0.0106,-0.37041 0.0317,-0.68791 0.0212,-0.32808 0.0317,-0.55033 h -0.0423 l -2.51882,6.61456 z"
         id="path496"
         style="fill:#f4f8ff;fill-opacity:1;stroke:#0f1f2e;stroke-opacity:1" /><path
         d="m 139.22261,156.83268 q 0.73024,0 1.24883,0.3175 0.52916,0.3175 0.80433,0.89958 0.28575,0.5715 0.28575,1.34408 v 0.56091 h -3.88408 q 0.0212,0.96308 0.48684,1.47108 0.47624,0.49742 1.32291,0.49742 0.53975,0 0.9525,-0.0952 0.42333,-0.10584 0.86783,-0.29634 v 0.81492 q -0.43392,0.1905 -0.85725,0.27516 -0.42333,0.0953 -1.00541,0.0953 -0.80434,0 -1.42875,-0.32808 -0.61383,-0.32808 -0.96308,-0.97366 -0.33867,-0.65617 -0.33867,-1.59808 0,-0.93133 0.30692,-1.59808 0.3175,-0.66675 0.87841,-1.02658 0.5715,-0.35983 1.32292,-0.35983 z m -0.0106,0.762 q -0.66675,0 -1.05833,0.43391 -0.381,0.42333 -0.45508,1.18533 h 2.88924 q 0,-0.48683 -0.14816,-0.84666 -0.14817,-0.35984 -0.45509,-0.56092 -0.29633,-0.21166 -0.77258,-0.21166 z"
         id="path498"
         style="fill:#f4f8ff;fill-opacity:1;stroke:#0f1f2e;stroke-opacity:1" /><path
         d="m 145.14924,156.84326 q 1.03717,0 1.53458,0.45508 0.49742,0.45509 0.49742,1.44992 v 3.8629 h -0.67733 l -0.17992,-0.80433 h -0.0423 q -0.24342,0.30692 -0.508,0.51858 -0.254,0.20108 -0.59267,0.29633 -0.32808,0.0953 -0.80433,0.0953 -0.50799,0 -0.92074,-0.17991 -0.40217,-0.17992 -0.635,-0.55033 -0.23283,-0.381 -0.23283,-0.9525 0,-0.84667 0.66674,-1.30175 0.66675,-0.46566 2.05316,-0.508 l 0.96308,-0.0318 v -0.33866 q 0,-0.70908 -0.30691,-0.98425 -0.30692,-0.27516 -0.86783,-0.27516 -0.4445,0 -0.84667,0.13758 -0.40216,0.127 -0.75141,0.29633 l -0.28575,-0.6985 q 0.37042,-0.20108 0.87841,-0.33866 0.508,-0.14817 1.05833,-0.14817 z m 0.27517,3.02683 q -1.05833,0.0423 -1.47108,0.33866 -0.40216,0.29633 -0.40216,0.83608 0,0.47625 0.28575,0.6985 0.29633,0.22225 0.75141,0.22225 0.71966,0 1.19591,-0.39158 0.47625,-0.40217 0.47625,-1.22767 v -0.50799 z"
         id="path500"
         style="fill:#f4f8ff;fill-opacity:1;stroke:#0f1f2e;stroke-opacity:1" /><path
         d="m 152.63165,161.04483 q 0,0.55033 -0.27517,0.92075 -0.27517,0.37041 -0.78316,0.56091 -0.508,0.1905 -1.2065,0.1905 -0.59266,0 -1.02658,-0.0953 -0.42333,-0.0952 -0.75141,-0.26458 v -0.84666 q 0.33866,0.16933 0.81491,0.3175 0.48683,0.13758 0.98425,0.13758 0.70908,0 1.02658,-0.22225 0.3175,-0.23283 0.3175,-0.61383 0,-0.21167 -0.11642,-0.381 -0.11642,-0.16933 -0.42333,-0.33867 -0.29633,-0.16933 -0.85725,-0.38099 -0.55033,-0.21167 -0.94191,-0.42334 -0.39159,-0.21166 -0.60325,-0.508 -0.21167,-0.29633 -0.21167,-0.76199 0,-0.71967 0.58208,-1.11125 0.59267,-0.39158 1.54517,-0.39158 0.51858,0 0.96308,0.10583 0.45508,0.0952 0.84666,0.27517 l -0.3175,0.74083 q -0.35983,-0.14817 -0.75141,-0.254 -0.39159,-0.10583 -0.80433,-0.10583 -0.5715,0 -0.87842,0.1905 -0.29633,0.17991 -0.29633,0.49741 0,0.23283 0.13758,0.40217 0.13759,0.15875 0.45508,0.3175 0.32809,0.14816 0.86783,0.35983 0.53975,0.20108 0.92075,0.41275 0.381,0.21166 0.58208,0.51858 0.20109,0.29633 0.20109,0.75141 z"
         id="path502"
         style="fill:#f4f8ff;fill-opacity:1;stroke:#0f1f2e;stroke-opacity:1" /><path
         d="m 158.74879,156.93851 v 5.67265 h -0.76199 l -0.13759,-0.75141 h -0.0423 q -0.17992,0.29633 -0.46567,0.48683 -0.28574,0.1905 -0.62441,0.27516 -0.33867,0.0953 -0.70908,0.0953 -0.67733,0 -1.143,-0.21166 -0.45508,-0.22225 -0.68791,-0.67733 -0.23283,-0.45509 -0.23283,-1.17475 v -3.71474 h 0.94191 v 3.65124 q 0,0.67733 0.30691,1.016 0.30692,0.33866 0.9525,0.33866 0.635,0 0.99483,-0.23283 0.37042,-0.24342 0.51858,-0.6985 0.15875,-0.46566 0.15875,-1.12183 v -2.95274 z"
         id="path504"
         style="fill:#f4f8ff;fill-opacity:1;stroke:#0f1f2e;stroke-opacity:1" /><path
         d="m 163.19378,156.83268 q 0.15875,0 0.33867,0.0212 0.1905,0.0106 0.32808,0.0423 l -0.11642,0.85725 q -0.13758,-0.0318 -0.30691,-0.0529 -0.15875,-0.0212 -0.30692,-0.0212 -0.32808,0 -0.62441,0.13759 -0.29633,0.13758 -0.52917,0.39158 -0.23283,0.24341 -0.37041,0.59266 -0.127,0.34925 -0.127,0.78317 v 3.02682 h -0.93133 v -5.67265 h 0.76199 l 0.10584,1.03717 h 0.0423 q 0.17992,-0.3175 0.43392,-0.5715 0.254,-0.26459 0.58208,-0.41275 0.32808,-0.15875 0.71966,-0.15875 z"
         id="path506"
         style="fill:#f4f8ff;fill-opacity:1;stroke:#0f1f2e;stroke-opacity:1" /><path
         d="m 166.89793,156.83268 q 0.73025,0 1.24883,0.3175 0.52917,0.3175 0.80433,0.89958 0.28575,0.5715 0.28575,1.34408 v 0.56091 h -3.88407 q 0.0212,0.96308 0.48683,1.47108 0.47625,0.49742 1.32292,0.49742 0.53974,0 0.95249,-0.0952 0.42333,-0.10584 0.86783,-0.29634 v 0.81492 q -0.43391,0.1905 -0.85724,0.27516 -0.42334,0.0953 -1.00542,0.0953 -0.80433,0 -1.42874,-0.32808 -0.61383,-0.32808 -0.96308,-0.97366 -0.33867,-0.65617 -0.33867,-1.59808 0,-0.93133 0.30692,-1.59808 0.3175,-0.66675 0.87841,-1.02658 0.5715,-0.35983 1.32291,-0.35983 z m -0.0106,0.762 q -0.66675,0 -1.05833,0.43391 -0.381,0.42333 -0.45508,1.18533 h 2.88924 q 0,-0.48683 -0.14817,-0.84666 -0.14816,-0.35984 -0.45508,-0.56092 -0.29633,-0.21166 -0.77258,-0.21166 z"
         id="path508"
         style="fill:#f4f8ff;fill-opacity:1;stroke:#0f1f2e;stroke-opacity:1" /><path
         d="m 176.89914,156.83268 q 0.96308,0 1.43933,0.49741 0.47625,0.48684 0.47625,1.5875 v 3.69357 h -0.92075 v -3.65124 q 0,-0.66675 -0.28575,-1.00541 -0.27516,-0.33867 -0.86783,-0.33867 -0.8255,0 -1.18533,0.47625 -0.34925,0.47625 -0.34925,1.38641 v 3.13266 h -0.92074 v -3.65124 q 0,-0.4445 -0.127,-0.74083 -0.127,-0.30691 -0.381,-0.45508 -0.254,-0.14817 -0.65617,-0.14817 -0.57149,0 -0.89958,0.24342 -0.32808,0.23283 -0.47625,0.68791 -0.13758,0.45509 -0.13758,1.12183 v 2.94216 h -0.93133 v -5.67265 h 0.75142 l 0.13758,0.77258 h 0.0529 q 0.17992,-0.29633 0.43392,-0.48683 0.26458,-0.20108 0.58208,-0.29633 0.3175,-0.0952 0.65617,-0.0952 0.65616,0 1.09008,0.23283 0.44449,0.23283 0.64558,0.71967 h 0.0529 q 0.28575,-0.48684 0.77258,-0.71967 0.49742,-0.23283 1.04775,-0.23283 z"
         id="path510"
         style="fill:#f4f8ff;fill-opacity:1;stroke:#0f1f2e;stroke-opacity:1" /><path
         d="m 182.76228,156.83268 q 0.73025,0 1.24883,0.3175 0.52917,0.3175 0.80433,0.89958 0.28575,0.5715 0.28575,1.34408 v 0.56091 h -3.88407 q 0.0212,0.96308 0.48683,1.47108 0.47625,0.49742 1.32291,0.49742 0.53975,0 0.9525,-0.0952 0.42333,-0.10584 0.86783,-0.29634 v 0.81492 q -0.43391,0.1905 -0.85724,0.27516 -0.42334,0.0953 -1.00542,0.0953 -0.80433,0 -1.42874,-0.32808 -0.61384,-0.32808 -0.96308,-0.97366 -0.33867,-0.65617 -0.33867,-1.59808 0,-0.93133 0.30692,-1.59808 0.3175,-0.66675 0.87841,-1.02658 0.5715,-0.35983 1.32291,-0.35983 z m -0.0106,0.762 q -0.66675,0 -1.05833,0.43391 -0.381,0.42333 -0.45508,1.18533 h 2.88924 q 0,-0.48683 -0.14817,-0.84666 -0.14816,-0.35984 -0.45508,-0.56092 -0.29633,-0.21166 -0.77258,-0.21166 z"
         id="path512"
         style="fill:#f4f8ff;fill-opacity:1;stroke:#0f1f2e;stroke-opacity:1" /><path
         d="m 189.271,156.83268 q 1.016,0 1.53458,0.49741 0.51858,0.48684 0.51858,1.5875 v 3.69357 h -0.92074 v -3.63007 q 0,-0.68792 -0.30692,-1.02658 -0.30692,-0.33867 -0.96308,-0.33867 -0.94191,0 -1.30175,0.52917 -0.35983,0.52916 -0.35983,1.52399 v 2.94216 h -0.93133 v -5.67265 h 0.75141 l 0.13759,0.77258 h 0.0529 q 0.1905,-0.29633 0.46567,-0.48683 0.28575,-0.20108 0.62441,-0.29633 0.33867,-0.0952 0.6985,-0.0952 z"
         id="path514"
         style="fill:#f4f8ff;fill-opacity:1;stroke:#0f1f2e;stroke-opacity:1" /><path
         d="m 194.9754,161.955 q 0.21167,0 0.43392,-0.0318 0.22225,-0.0423 0.35983,-0.0847 v 0.70908 q -0.14817,0.0741 -0.42333,0.11642 -0.27517,0.0529 -0.52917,0.0529 -0.4445,0 -0.82549,-0.14816 -0.37042,-0.15875 -0.60325,-0.53975 -0.23283,-0.381 -0.23283,-1.06891 v -3.30199 h -0.80434 v -0.4445 l 0.81492,-0.37042 0.37041,-1.20649 h 0.55034 v 1.30174 h 1.64041 v 0.71967 h -1.64041 v 3.28082 q 0,0.51858 0.24341,0.77258 0.254,0.24342 0.64558,0.24342 z"
         id="path516"
         style="fill:#f4f8ff;fill-opacity:1;stroke:#0f1f2e;stroke-opacity:1" /><path
         d="m 146.48804,168.28381 q 0.94191,0 1.54516,0.24341 0.61383,0.23284 0.91016,0.70909 0.29634,0.47624 0.29634,1.19591 0,0.60325 -0.22225,1.00541 -0.22225,0.40217 -0.5715,0.64558 -0.33867,0.23284 -0.71967,0.37042 l 2.07433,3.38665 h -1.11125 l -1.83091,-3.12207 h -1.50283 v 3.12207 h -0.95249 v -7.55647 z m -0.0529,0.8255 h -1.0795 v 2.80457 h 1.13242 q 0.92075,0 1.34408,-0.35983 0.42333,-0.37042 0.42333,-1.0795 0,-0.49741 -0.20108,-0.79375 -0.1905,-0.29633 -0.59267,-0.43391 -0.40216,-0.13758 -1.02658,-0.13758 z"
         id="path518"
         style="fill:#f4f8ff;fill-opacity:1;stroke:#0f1f2e;stroke-opacity:1" /><path
         d="m 153.04968,170.0618 q 0.73025,0 1.24883,0.3175 0.52917,0.3175 0.80433,0.89958 0.28575,0.5715 0.28575,1.34408 v 0.56092 h -3.88407 q 0.0212,0.96308 0.48683,1.47108 0.47625,0.49741 1.32291,0.49741 0.53975,0 0.9525,-0.0952 0.42333,-0.10583 0.86783,-0.29633 v 0.81491 q -0.43391,0.1905 -0.85725,0.27517 -0.42333,0.0953 -1.00541,0.0953 -0.80433,0 -1.42875,-0.32808 -0.61383,-0.32809 -0.96308,-0.97367 -0.33866,-0.65616 -0.33866,-1.59808 0,-0.93133 0.30691,-1.59807 0.3175,-0.66675 0.87842,-1.02658 0.5715,-0.35984 1.32291,-0.35984 z m -0.0106,0.762 q -0.66675,0 -1.05833,0.43392 -0.381,0.42333 -0.45508,1.18533 h 2.88924 q 0,-0.48684 -0.14817,-0.84667 -0.14817,-0.35983 -0.45508,-0.56091 -0.29633,-0.21167 -0.77258,-0.21167 z"
         id="path520"
         style="fill:#f4f8ff;fill-opacity:1;stroke:#0f1f2e;stroke-opacity:1" /><path
         d="m 160.52148,174.27396 q 0,0.55033 -0.27516,0.92074 -0.27517,0.37042 -0.78317,0.56092 -0.508,0.1905 -1.20649,0.1905 -0.59267,0 -1.02658,-0.0953 -0.42334,-0.0952 -0.75142,-0.26458 v -0.84667 q 0.33867,0.16933 0.81492,0.3175 0.48683,0.13758 0.98424,0.13758 0.70908,0 1.02658,-0.22225 0.3175,-0.23283 0.3175,-0.61383 0,-0.21166 -0.11642,-0.381 -0.11641,-0.16933 -0.42333,-0.33866 -0.29633,-0.16933 -0.85724,-0.381 -0.55034,-0.21167 -0.94192,-0.42333 -0.39158,-0.21167 -0.60325,-0.508 -0.21166,-0.29633 -0.21166,-0.762 0,-0.71966 0.58208,-1.11124 0.59266,-0.39159 1.54516,-0.39159 0.51858,0 0.96308,0.10584 0.45508,0.0952 0.84667,0.27516 l -0.3175,0.74083 q -0.35984,-0.14816 -0.75142,-0.254 -0.39158,-0.10583 -0.80433,-0.10583 -0.5715,0 -0.87841,0.1905 -0.29633,0.17992 -0.29633,0.49742 0,0.23283 0.13758,0.40216 0.13758,0.15875 0.45508,0.3175 0.32808,0.14817 0.86783,0.35983 0.53975,0.20108 0.92075,0.41275 0.381,0.21167 0.58208,0.51858 0.20108,0.29633 0.20108,0.75142 z"
         id="path522"
         style="fill:#f4f8ff;fill-opacity:1;stroke:#0f1f2e;stroke-opacity:1" /><path
         d="m 166.63863,170.16764 v 5.67264 h -0.762 l -0.13758,-0.75141 h -0.0423 q -0.17992,0.29633 -0.46567,0.48683 -0.28575,0.1905 -0.62441,0.27517 -0.33867,0.0953 -0.70908,0.0953 -0.67734,0 -1.143,-0.21167 -0.45508,-0.22225 -0.68792,-0.67733 -0.23283,-0.45508 -0.23283,-1.17475 v -3.71473 h 0.94192 v 3.65123 q 0,0.67734 0.30691,1.016 0.30692,0.33867 0.9525,0.33867 0.635,0 0.99483,-0.23284 0.37041,-0.24341 0.51858,-0.69849 0.15875,-0.46567 0.15875,-1.12183 v -2.95274 z"
         id="path524"
         style="fill:#f4f8ff;fill-opacity:1;stroke:#0f1f2e;stroke-opacity:1" /><path
         d="m 169.36912,175.84028 h -0.93133 v -8.0433 h 0.93133 z"
         id="path526"
         style="fill:#f4f8ff;fill-opacity:1;stroke:#0f1f2e;stroke-opacity:1" /><path
         d="m 173.06269,175.18412 q 0.21166,0 0.43391,-0.0318 0.22225,-0.0423 0.35983,-0.0847 v 0.70909 q -0.14816,0.0741 -0.42333,0.11641 -0.27516,0.0529 -0.52916,0.0529 -0.4445,0 -0.8255,-0.14817 -0.37042,-0.15875 -0.60325,-0.53975 -0.23283,-0.381 -0.23283,-1.06891 v -3.30199 h -0.80433 v -0.4445 l 0.81491,-0.37041 0.37042,-1.2065 h 0.55033 v 1.30175 h 1.64041 v 0.71966 h -1.64041 v 3.28082 q 0,0.51859 0.24341,0.77258 0.254,0.24342 0.64559,0.24342 z"
         id="path528"
         style="fill:#f4f8ff;fill-opacity:1;stroke:#0f1f2e;stroke-opacity:1" /><path
         d="m 178.68242,174.27396 q 0,0.55033 -0.27517,0.92074 -0.27516,0.37042 -0.78316,0.56092 -0.508,0.1905 -1.2065,0.1905 -0.59266,0 -1.02658,-0.0953 -0.42333,-0.0952 -0.75141,-0.26458 v -0.84667 q 0.33866,0.16933 0.81491,0.3175 0.48683,0.13758 0.98425,0.13758 0.70908,0 1.02658,-0.22225 0.3175,-0.23283 0.3175,-0.61383 0,-0.21166 -0.11642,-0.381 -0.11641,-0.16933 -0.42333,-0.33866 -0.29633,-0.16933 -0.85725,-0.381 -0.55033,-0.21167 -0.94191,-0.42333 -0.39158,-0.21167 -0.60325,-0.508 -0.21166,-0.29633 -0.21166,-0.762 0,-0.71966 0.58208,-1.11124 0.59266,-0.39159 1.54516,-0.39159 0.51858,0 0.96308,0.10584 0.45508,0.0952 0.84666,0.27516 l -0.3175,0.74083 q -0.35983,-0.14816 -0.75141,-0.254 -0.39158,-0.10583 -0.80433,-0.10583 -0.5715,0 -0.87842,0.1905 -0.29633,0.17992 -0.29633,0.49742 0,0.23283 0.13759,0.40216 0.13758,0.15875 0.45508,0.3175 0.32808,0.14817 0.86783,0.35983 0.53975,0.20108 0.92074,0.41275 0.381,0.21167 0.58209,0.51858 0.20108,0.29633 0.20108,0.75142 z"
         id="path530"
         style="fill:#f4f8ff;fill-opacity:1;stroke:#0f1f2e;stroke-opacity:1" /></g><g
       aria-label="Quantum Operations"
       id="text29328"
       style="font-size:10.5833px;line-height:1.25;text-align:center;text-anchor:middle;stroke:#0f1f2e;stroke-width:0.529167;stroke-linecap:round;stroke-linejoin:round;paint-order:markers stroke fill;fill:#f4f8ff;fill-opacity:1;stroke-opacity:1"><path
         d="m 7.791637,67.051679 q 0,0.920747 -0.2539992,1.672161 -0.2434159,0.751414 -0.7302477,1.269996 -0.4868318,0.518582 -1.2170794,0.761997 l 1.8097442,1.883828 H 6.0348092 L 4.5743139,70.93575 q -0.0635,0 -0.1375829,0 -0.0635,0.01058 -0.1269996,0.01058 -0.8889972,0 -1.5451617,-0.275166 Q 2.1084051,70.385418 1.6744898,69.87742 1.2405745,69.358838 1.0289085,68.639174 0.81724252,67.919509 0.81724252,67.041095 q 0,-1.164163 0.38099878,-2.031993 0.3809988,-0.867831 1.1535797,-1.354663 0.7831641,-0.486831 1.9684937,-0.486831 1.1324131,0 1.9049939,0.486831 0.7725809,0.476249 1.164163,1.354663 0.4021654,0.86783 0.4021654,2.042577 z m -5.968981,0 q 0,0.952497 0.2645825,1.640411 0.2645825,0.687915 0.814914,1.05833 0.5609149,0.370416 1.4075789,0.370416 0.8572473,0 1.3969956,-0.370416 0.5503315,-0.370415 0.814914,-1.05833 0.2645825,-0.687914 0.2645825,-1.640411 0,-1.428746 -0.5926648,-2.233077 -0.5926647,-0.814914 -1.873244,-0.814914 -0.8572473,0 -1.4181622,0.370416 Q 2.351821,64.733936 2.0872385,65.42185 1.822656,66.099182 1.822656,67.051679 Z"
         id="path461"
         style="fill:#f4f8ff;fill-opacity:1;stroke:#0f1f2e;stroke-opacity:1" /><path
         d="M 14.078118,65.167851 V 70.8405 h -0.761997 l -0.137583,-0.751414 h -0.04233 q -0.179917,0.296332 -0.465666,0.486831 -0.285749,0.1905 -0.624414,0.275166 -0.338666,0.09525 -0.709081,0.09525 -0.677332,0 -1.142997,-0.211666 Q 9.7389653,70.512418 9.5061327,70.057336 9.2733002,69.602254 9.2733002,68.882589 v -3.714738 h 0.9419138 v 3.651239 q 0,0.677331 0.306916,1.015996 0.306915,0.338666 0.952496,0.338666 0.634998,0 0.994831,-0.232833 0.370415,-0.243415 0.518581,-0.698497 0.15875,-0.465666 0.15875,-1.12183 v -2.952741 z"
         id="path463"
         style="fill:#f4f8ff;fill-opacity:1;stroke:#0f1f2e;stroke-opacity:1" /><path
         d="m 18.025689,65.072602 q 1.037164,0 1.534579,0.455081 0.497415,0.455082 0.497415,1.449913 V 70.8405 h -0.677331 l -0.179916,-0.804331 h -0.04233 q -0.243416,0.306916 -0.507999,0.518582 -0.253999,0.201082 -0.592665,0.296332 -0.328082,0.09525 -0.80433,0.09525 -0.507999,0 -0.920748,-0.179916 -0.402165,-0.179916 -0.634997,-0.550332 -0.232833,-0.380999 -0.232833,-0.952497 0,-0.846664 0.666748,-1.301746 0.666748,-0.465665 2.05316,-0.507998 l 0.96308,-0.03175 v -0.338665 q 0,-0.709082 -0.306915,-0.984247 -0.306916,-0.275166 -0.867831,-0.275166 -0.444499,0 -0.846664,0.137583 -0.402165,0.126999 -0.751414,0.296332 l -0.285749,-0.698498 q 0.370415,-0.201082 0.878413,-0.338665 0.507999,-0.148166 1.05833,-0.148166 z m 0.275166,3.026823 q -1.05833,0.04233 -1.471078,0.338666 -0.402166,0.296332 -0.402166,0.836081 0,0.476248 0.285749,0.698497 0.296333,0.22225 0.751415,0.22225 0.719664,0 1.195912,-0.391582 0.476249,-0.402166 0.476249,-1.227663 v -0.507999 z"
         id="path465"
         style="fill:#f4f8ff;fill-opacity:1;stroke:#0f1f2e;stroke-opacity:1" /><path
         d="m 24.545012,65.062018 q 1.015996,0 1.534578,0.497415 0.518582,0.486832 0.518582,1.587495 V 70.8405 h -0.920747 v -3.630072 q 0,-0.687914 -0.306916,-1.02658 -0.306916,-0.338666 -0.96308,-0.338666 -0.941914,0 -1.301746,0.529165 -0.359832,0.529165 -0.359832,1.523996 V 70.8405 H 21.81452 v -5.672649 h 0.751414 l 0.137583,0.772581 h 0.05292 q 0.190499,-0.296332 0.465665,-0.486832 0.285749,-0.201082 0.624415,-0.296332 0.338665,-0.09525 0.698498,-0.09525 z"
         id="path467"
         style="fill:#f4f8ff;fill-opacity:1;stroke:#0f1f2e;stroke-opacity:1" /><path
         d="m 30.249409,70.184335 q 0.211666,0 0.433915,-0.03175 0.222249,-0.04233 0.359832,-0.08467 V 70.777 q -0.148166,0.07408 -0.423332,0.116416 -0.275166,0.05292 -0.529165,0.05292 -0.444498,0 -0.825497,-0.148166 -0.370416,-0.15875 -0.603248,-0.539749 -0.232833,-0.380998 -0.232833,-1.068913 V 65.887516 H 27.62475 v -0.444499 l 0.814914,-0.370415 0.370416,-1.206497 h 0.550331 v 1.301746 h 1.640412 v 0.719665 h -1.640412 v 3.280823 q 0,0.518581 0.243416,0.77258 0.254,0.243416 0.645582,0.243416 z"
         id="path469"
         style="fill:#f4f8ff;fill-opacity:1;stroke:#0f1f2e;stroke-opacity:1" /><path
         d="M 36.916888,65.167851 V 70.8405 h -0.761997 l -0.137583,-0.751414 h -0.04233 q -0.179916,0.296332 -0.465665,0.486831 -0.285749,0.1905 -0.624414,0.275166 -0.338666,0.09525 -0.709082,0.09525 -0.677331,0 -1.142996,-0.211666 -0.455082,-0.222249 -0.687914,-0.677331 -0.232833,-0.455082 -0.232833,-1.174747 v -3.714738 h 0.941914 v 3.651239 q 0,0.677331 0.306915,1.015996 0.306916,0.338666 0.952497,0.338666 0.634998,0 0.994831,-0.232833 0.370415,-0.243415 0.518581,-0.698497 0.15875,-0.465666 0.15875,-1.12183 v -2.952741 z"
         id="path471"
         style="fill:#f4f8ff;fill-opacity:1;stroke:#0f1f2e;stroke-opacity:1" /><path
         d="m 44.939032,65.062018 q 0.96308,0 1.439328,0.497415 0.476249,0.486832 0.476249,1.587495 V 70.8405 h -0.920747 v -3.651238 q 0,-0.666748 -0.285749,-1.005414 -0.275166,-0.338666 -0.867831,-0.338666 -0.825497,0 -1.185329,0.476249 -0.349249,0.476248 -0.349249,1.386412 V 70.8405 h -0.920747 v -3.651238 q 0,-0.444499 -0.127,-0.740831 -0.127,-0.306916 -0.380999,-0.455082 -0.253999,-0.148167 -0.656164,-0.148167 -0.571499,0 -0.899581,0.243416 -0.328082,0.232833 -0.476248,0.687915 -0.137583,0.455082 -0.137583,1.12183 V 70.8405 h -0.931331 v -5.672649 h 0.751415 l 0.137583,0.772581 h 0.05292 Q 39.837881,65.6441 40.09188,65.4536 q 0.264583,-0.201082 0.582082,-0.296332 0.317499,-0.09525 0.656164,-0.09525 0.656165,0 1.09008,0.232833 0.444499,0.232832 0.645582,0.719664 h 0.05292 q 0.285749,-0.486832 0.772581,-0.719664 0.497415,-0.232833 1.047747,-0.232833 z"
         id="path473"
         style="fill:#f4f8ff;fill-opacity:1;stroke:#0f1f2e;stroke-opacity:1" /><path
         d="m 3.8599511,80.280803 q 0,0.878414 -0.2222493,1.598078 -0.2222493,0.709081 -0.6667479,1.227663 -0.4339153,0.518582 -1.0900798,0.793748 -0.6455813,0.275165 -1.50282858,0.275165 -0.88899717,0 -1.54516172,-0.275165 -0.6561646,-0.285749 -1.0900799,-0.793748 -0.4339153,-0.518582 -0.6455813,-1.238246 -0.211666,-0.719664 -0.211666,-1.598078 0,-1.164163 0.3809988,-2.031994 0.3809988,-0.86783 1.1535797,-1.354662 0.78316416,-0.486832 1.96849372,-0.486832 1.13241308,0 1.90499398,0.486832 0.7725808,0.476248 1.1641629,1.354662 0.4021654,0.867831 0.4021654,2.042577 z m -5.968981,0 q 0,0.952497 0.2645825,1.640412 0.2645825,0.687914 0.8149141,1.05833 0.56091485,0.370415 1.40757882,0.370415 0.85724728,0 1.39699558,-0.370415 0.5503315,-0.370416 0.814914,-1.05833 0.2645825,-0.687915 0.2645825,-1.640412 0,-1.428745 -0.5926647,-2.233076 -0.5926648,-0.814914 -1.87324408,-0.814914 -0.85724727,0 -1.41816212,0.370415 -0.5503316,0.359833 -0.8149141,1.047747 -0.2645825,0.677331 -0.2645825,1.629828 z"
         id="path475"
         style="fill:#f4f8ff;fill-opacity:1;stroke:#0f1f2e;stroke-opacity:1" /><path
         d="m 8.1038555,78.291143 q 1.0477466,0 1.6827446,0.730247 0.6455809,0.730248 0.6455809,2.201327 0,0.96308 -0.296332,1.629828 -0.2857491,0.656165 -0.8149141,0.99483 -0.5185816,0.328082 -1.2276627,0.328082 -0.4339153,0 -0.7725809,-0.116416 Q 6.9820257,83.942625 6.7386098,83.762709 6.5057772,83.572209 6.3364444,83.34996 h -0.0635 q 0.021167,0.179916 0.042333,0.455082 0.021167,0.275166 0.021167,0.476248 v 2.328326 H 5.4051141 v -8.21264 h 0.7619975 l 0.1269996,0.772581 h 0.042333 q 0.169333,-0.243416 0.4021656,-0.444499 0.2434159,-0.201083 0.5714982,-0.317499 0.3386656,-0.116416 0.7937475,-0.116416 z m -0.1693328,0.783164 q -0.5714982,0 -0.9207471,0.222249 -0.3492489,0.211666 -0.5079984,0.645582 -0.1587495,0.433915 -0.1693328,1.100663 v 0.179916 q 0,0.698498 0.1481662,1.185329 0.1481662,0.486832 0.4974151,0.740831 0.3598322,0.254 0.9736636,0.254 0.5185817,0 0.846664,-0.28575 0.3386655,-0.285749 0.497415,-0.77258 0.1693328,-0.497415 0.1693328,-1.132413 0,-0.973664 -0.3809988,-1.555746 -0.3704154,-0.582081 -1.1535796,-0.582081 z"
         id="path477"
         style="fill:#f4f8ff;fill-opacity:1;stroke:#0f1f2e;stroke-opacity:1" /><path
         d="m 14.104584,78.291143 q 0.730248,0 1.24883,0.317499 0.529165,0.317499 0.80433,0.89958 0.285749,0.571498 0.285749,1.344079 v 0.560915 h -3.884071 q 0.02117,0.96308 0.486832,1.471079 0.476249,0.497415 1.322913,0.497415 0.539748,0 0.952497,-0.09525 0.423332,-0.105833 0.86783,-0.296332 v 0.814914 q -0.433915,0.190499 -0.857247,0.275166 -0.423332,0.09525 -1.005414,0.09525 -0.80433,0 -1.428745,-0.328082 -0.613831,-0.328082 -0.96308,-0.973663 -0.338666,-0.656165 -0.338666,-1.598079 0,-0.93133 0.306916,-1.598078 0.317499,-0.666748 0.878414,-1.02658 0.571498,-0.359832 1.322912,-0.359833 z m -0.01058,0.761997 q -0.666748,0 -1.05833,0.433916 -0.380999,0.423332 -0.455082,1.185329 h 2.889241 q 0,-0.486832 -0.148166,-0.846664 Q 15.1735,79.465889 14.866585,79.264806 14.570252,79.05314 14.094004,79.05314 Z"
         id="path479"
         style="fill:#f4f8ff;fill-opacity:1;stroke:#0f1f2e;stroke-opacity:1" /><path
         d="m 20.528638,78.291143 q 0.15875,0 0.338666,0.02117 0.190499,0.01058 0.328082,0.04233 L 21.07897,79.21189 q -0.137583,-0.03175 -0.306916,-0.05292 -0.158749,-0.02117 -0.306916,-0.02117 -0.328082,0 -0.624414,0.137583 -0.296333,0.137583 -0.529165,0.391582 -0.232833,0.243416 -0.370416,0.592665 -0.126999,0.349248 -0.126999,0.783164 v 3.026823 h -0.931331 v -5.672648 h 0.761998 l 0.105833,1.037163 h 0.04233 q 0.179916,-0.317499 0.433915,-0.571498 0.254,-0.264582 0.582082,-0.412749 0.328082,-0.158749 0.719664,-0.158749 z"
         id="path481"
         style="fill:#f4f8ff;fill-opacity:1;stroke:#0f1f2e;stroke-opacity:1" /><path
         d="m 24.190456,78.301726 q 1.037164,0 1.534579,0.455082 0.497415,0.455082 0.497415,1.449912 v 3.862904 h -0.677331 l -0.179916,-0.80433 h -0.04233 q -0.243416,0.306915 -0.507998,0.518581 -0.253999,0.201083 -0.592665,0.296333 -0.328082,0.09525 -0.804331,0.09525 -0.507998,0 -0.920747,-0.179916 -0.402165,-0.179916 -0.634998,-0.550331 -0.232832,-0.380999 -0.232832,-0.952497 0,-0.846664 0.666748,-1.301746 0.666748,-0.465665 2.05316,-0.507998 l 0.96308,-0.03175 v -0.338666 q 0,-0.709081 -0.306916,-0.984247 -0.306915,-0.275166 -0.86783,-0.275166 -0.444499,0 -0.846664,0.137583 -0.402166,0.127 -0.751414,0.296333 l -0.28575,-0.698498 q 0.370416,-0.201083 0.878414,-0.338666 0.507999,-0.148166 1.05833,-0.148166 z m 0.275166,3.026824 q -1.05833,0.04233 -1.471079,0.338665 -0.402165,0.296333 -0.402165,0.836081 0,0.476249 0.285749,0.698498 0.296333,0.222249 0.751414,0.222249 0.719665,0 1.195913,-0.391582 0.476249,-0.402165 0.476249,-1.227663 V 81.2968 Z"
         id="path483"
         style="fill:#f4f8ff;fill-opacity:1;stroke:#0f1f2e;stroke-opacity:1" /><path
         d="m 29.873696,83.41346 q 0.211666,0 0.433915,-0.03175 0.222249,-0.04233 0.359832,-0.08467 v 0.709081 q -0.148166,0.07408 -0.423332,0.116416 -0.275166,0.05292 -0.529165,0.05292 -0.444498,0 -0.825497,-0.148166 -0.370416,-0.158749 -0.603248,-0.539748 -0.232833,-0.380999 -0.232833,-1.068913 v -3.30199 h -0.804331 v -0.444498 l 0.814915,-0.370416 0.370415,-1.206496 h 0.550332 v 1.301746 h 1.640411 v 0.719664 h -1.640411 v 3.280823 q 0,0.518582 0.243415,0.772581 0.254,0.243416 0.645582,0.243416 z"
         id="path485"
         style="fill:#f4f8ff;fill-opacity:1;stroke:#0f1f2e;stroke-opacity:1" /><path
         d="m 32.731187,78.396976 v 5.672648 h -0.93133 v -5.672648 z m -0.455081,-2.127243 q 0.211666,0 0.370415,0.148166 0.169333,0.137583 0.169333,0.444498 0,0.296333 -0.169333,0.444499 -0.158749,0.148166 -0.370415,0.148166 -0.232833,0 -0.391583,-0.148166 -0.158749,-0.148166 -0.158749,-0.444499 0,-0.306915 0.158749,-0.444498 0.15875,-0.148166 0.391583,-0.148166 z"
         id="path487"
         style="fill:#f4f8ff;fill-opacity:1;stroke:#0f1f2e;stroke-opacity:1" /><path
         d="m 39.462162,81.222717 q 0,0.709081 -0.190499,1.259412 -0.179916,0.539749 -0.529165,0.920748 -0.338665,0.380998 -0.836081,0.582081 -0.486831,0.190499 -1.090079,0.190499 -0.560915,0 -1.037164,-0.190499 -0.476248,-0.201083 -0.825497,-0.582081 -0.349249,-0.380999 -0.550332,-0.920748 -0.190499,-0.550331 -0.190499,-1.259412 0,-0.941914 0.317499,-1.587495 0.317499,-0.656165 0.910164,-0.99483 0.592664,-0.349249 1.407578,-0.349249 0.772581,0 1.354663,0.349249 0.592665,0.338665 0.920747,0.99483 0.338665,0.645581 0.338665,1.587495 z m -4.286236,0 q 0,0.666748 0.169333,1.164163 0.179916,0.486832 0.550332,0.751414 0.370415,0.264583 0.941913,0.264583 0.571498,0 0.941914,-0.264583 0.370415,-0.264582 0.539748,-0.751414 0.179916,-0.497415 0.179916,-1.164163 0,-0.677331 -0.179916,-1.15358 -0.179916,-0.476248 -0.550331,-0.730248 -0.359833,-0.264582 -0.941914,-0.264582 -0.867831,0 -1.259413,0.571498 -0.391582,0.571498 -0.391582,1.576912 z"
         id="path489"
         style="fill:#f4f8ff;fill-opacity:1;stroke:#0f1f2e;stroke-opacity:1" /><path
         d="m 43.663725,78.291143 q 1.015997,0 1.534579,0.497415 0.518582,0.486832 0.518582,1.587495 v 3.693571 h -0.920748 v -3.630071 q 0,-0.687915 -0.306915,-1.02658 -0.306916,-0.338666 -0.96308,-0.338666 -0.941914,0 -1.301746,0.529165 -0.359833,0.529165 -0.359833,1.523995 v 2.942157 h -0.93133 v -5.672648 h 0.751414 l 0.137583,0.772581 h 0.05292 q 0.190499,-0.296333 0.465665,-0.486832 0.285749,-0.201083 0.624415,-0.296332 0.338665,-0.09525 0.698497,-0.09525 z"
         id="path491"
         style="fill:#f4f8ff;fill-opacity:1;stroke:#0f1f2e;stroke-opacity:1" /><path
         d="m 51.167287,82.503296 q 0,0.550332 -0.275166,0.920747 -0.275165,0.370416 -0.783164,0.560915 -0.507998,0.190499 -1.206496,0.190499 -0.592665,0 -1.02658,-0.09525 -0.423332,-0.09525 -0.751414,-0.264583 V 82.96896 q 0.338665,0.169333 0.814914,0.317499 0.486832,0.137583 0.984247,0.137583 0.709081,0 1.02658,-0.222249 0.317499,-0.232833 0.317499,-0.613832 0,-0.211666 -0.116417,-0.380998 Q 50.034874,82.03763 49.727959,81.868297 49.431626,81.698964 48.870711,81.487298 48.32038,81.275632 47.928798,81.063966 47.537215,80.8523 47.325549,80.555968 47.113883,80.259636 47.113883,79.79397 q 0,-0.719664 0.582082,-1.111246 0.592665,-0.391582 1.545162,-0.391582 0.518581,0 0.96308,0.105833 0.455082,0.09525 0.846664,0.275166 l -0.317499,0.740831 q -0.359832,-0.148167 -0.751414,-0.254 -0.391582,-0.105833 -0.804331,-0.105833 -0.571498,0 -0.878414,0.1905 -0.296332,0.179916 -0.296332,0.497415 0,0.232832 0.137583,0.402165 0.137582,0.15875 0.455081,0.317499 0.328083,0.148166 0.867831,0.359832 0.539748,0.201083 0.920747,0.412749 0.380999,0.211666 0.582082,0.518582 0.201082,0.296332 0.201082,0.751414 z"
         id="path493"
         style="fill:#f4f8ff;fill-opacity:1;stroke:#0f1f2e;stroke-opacity:1" /></g><g
       aria-label="Classical Operations"
       id="text42022"
       style="font-size:10.5833px;line-height:1.25;text-align:center;text-anchor:middle;stroke:#0f1f2e;stroke-width:0.529167;stroke-linecap:round;stroke-linejoin:round;paint-order:markers stroke fill;fill:#f4f8ff;fill-opacity:1;stroke-opacity:1"><path
         d="m 7.220144,155.78493 q -0.6032481,0 -1.0900799,0.21167 -0.4868318,0.20108 -0.8254974,0.60325 -0.3386656,0.39158 -0.5185816,0.96308 -0.1799161,0.56091 -0.1799161,1.26999 0,0.93133 0.285749,1.61925 0.2963324,0.68791 0.8678306,1.05833 0.5820815,0.37041 1.4499121,0.37041 0.4974151,0 0.9419136,-0.0847 0.4444986,-0.0847 0.8678306,-0.21167 v 0.8255 q -0.423332,0.15875 -0.8784139,0.23283 -0.4444985,0.0741 -1.0689132,0.0741 -1.1535797,0 -1.9261606,-0.47625 -0.7725808,-0.47624 -1.1641629,-1.35466 -0.3809988,-0.87841 -0.3809988,-2.06374 0,-0.85725 0.2328326,-1.56633 0.2434159,-0.70908 0.6984978,-1.22766 0.4656651,-0.51858 1.1429963,-0.79375 0.6773312,-0.28575 1.5557451,-0.28575 0.5820814,0 1.1218297,0.11642 0.5397483,0.11641 0.9630803,0.32808 l -0.3809988,0.80433 q -0.3492489,-0.15875 -0.7831642,-0.28575 -0.4233319,-0.127 -0.9313303,-0.127 z"
         id="path422"
         style="fill:#f4f8ff;fill-opacity:1;stroke:#0f1f2e;stroke-opacity:1" /><path
         d="M 11.47463,162.61116 H 10.5433 v -8.04331 h 0.93133 z"
         id="path424"
         style="fill:#f4f8ff;fill-opacity:1;stroke:#0f1f2e;stroke-opacity:1" /><path
         d="m 15.422195,156.84326 q 1.037163,0 1.534578,0.45508 0.497415,0.45509 0.497415,1.44992 v 3.8629 h -0.677331 l -0.179916,-0.80433 h -0.04233 q -0.243416,0.30692 -0.507998,0.51858 -0.254,0.20108 -0.592665,0.29633 -0.328083,0.0953 -0.804331,0.0953 -0.507998,0 -0.920747,-0.17991 -0.402165,-0.17992 -0.634998,-0.55033 -0.232833,-0.381 -0.232833,-0.9525 0,-0.84667 0.666748,-1.30175 0.666748,-0.46566 2.05316,-0.508 l 0.963081,-0.0318 v -0.33866 q 0,-0.70908 -0.306916,-0.98425 -0.306916,-0.27516 -0.867831,-0.27516 -0.444498,0 -0.846664,0.13758 -0.402165,0.127 -0.751414,0.29633 l -0.285749,-0.6985 q 0.370415,-0.20108 0.878414,-0.33866 0.507998,-0.14817 1.05833,-0.14817 z m 0.275166,3.02683 q -1.05833,0.0423 -1.471079,0.33866 -0.402165,0.29633 -0.402165,0.83608 0,0.47625 0.285749,0.6985 0.296332,0.22225 0.751414,0.22225 0.719664,0 1.195913,-0.39158 0.476248,-0.40217 0.476248,-1.22767 v -0.50799 z"
         id="path426"
         style="fill:#f4f8ff;fill-opacity:1;stroke:#0f1f2e;stroke-opacity:1" /><path
         d="m 22.904596,161.04483 q 0,0.55033 -0.275166,0.92075 -0.275165,0.37041 -0.783164,0.56091 -0.507998,0.1905 -1.206496,0.1905 -0.592665,0 -1.02658,-0.0953 -0.423332,-0.0952 -0.751414,-0.26458 v -0.84666 q 0.338665,0.16933 0.814914,0.3175 0.486832,0.13758 0.984247,0.13758 0.709081,0 1.02658,-0.22225 0.317499,-0.23283 0.317499,-0.61383 0,-0.21167 -0.116417,-0.381 -0.116416,-0.16933 -0.423332,-0.33867 -0.296332,-0.16933 -0.857247,-0.38099 -0.550331,-0.21167 -0.941913,-0.42334 -0.391583,-0.21166 -0.603249,-0.508 -0.211666,-0.29633 -0.211666,-0.76199 0,-0.71967 0.582082,-1.11125 0.592665,-0.39158 1.545162,-0.39158 0.518581,0 0.96308,0.10583 0.455082,0.0952 0.846664,0.27517 l -0.317499,0.74083 q -0.359832,-0.14817 -0.751414,-0.254 -0.391582,-0.10583 -0.804331,-0.10583 -0.571498,0 -0.878414,0.1905 -0.296332,0.17991 -0.296332,0.49741 0,0.23283 0.137583,0.40217 0.137582,0.15875 0.455081,0.3175 0.328083,0.14816 0.867831,0.35983 0.539748,0.20108 0.920747,0.41275 0.380999,0.21166 0.582082,0.51858 0.201082,0.29633 0.201082,0.75141 z"
         id="path428"
         style="fill:#f4f8ff;fill-opacity:1;stroke:#0f1f2e;stroke-opacity:1" /><path
         d="m 27.973998,161.04483 q 0,0.55033 -0.275166,0.92075 -0.275166,0.37041 -0.783164,0.56091 -0.507998,0.1905 -1.206496,0.1905 -0.592665,0 -1.02658,-0.0953 -0.423332,-0.0952 -0.751414,-0.26458 v -0.84666 q 0.338665,0.16933 0.814914,0.3175 0.486831,0.13758 0.984246,0.13758 0.709082,0 1.026581,-0.22225 0.317499,-0.23283 0.317499,-0.61383 0,-0.21167 -0.116417,-0.381 -0.116416,-0.16933 -0.423332,-0.33867 -0.296332,-0.16933 -0.857247,-0.38099 -0.550332,-0.21167 -0.941914,-0.42334 -0.391582,-0.21166 -0.603248,-0.508 -0.211666,-0.29633 -0.211666,-0.76199 0,-0.71967 0.582082,-1.11125 0.592664,-0.39158 1.545161,-0.39158 0.518582,0 0.963081,0.10583 0.455082,0.0952 0.846664,0.27517 l -0.317499,0.74083 q -0.359833,-0.14817 -0.751415,-0.254 -0.391582,-0.10583 -0.80433,-0.10583 -0.571499,0 -0.878414,0.1905 -0.296333,0.17991 -0.296333,0.49741 0,0.23283 0.137583,0.40217 0.137583,0.15875 0.455082,0.3175 0.328082,0.14816 0.867831,0.35983 0.539748,0.20108 0.920747,0.41275 0.380999,0.21166 0.582081,0.51858 0.201083,0.29633 0.201083,0.75141 z"
         id="path430"
         style="fill:#f4f8ff;fill-opacity:1;stroke:#0f1f2e;stroke-opacity:1" /><path
         d="m 30.281158,156.93851 v 5.67265 h -0.931331 v -5.67265 z m -0.455082,-2.12724 q 0.211666,0 0.370415,0.14816 0.169333,0.13759 0.169333,0.4445 0,0.29634 -0.169333,0.4445 -0.158749,0.14817 -0.370415,0.14817 -0.232833,0 -0.391582,-0.14817 -0.15875,-0.14816 -0.15875,-0.4445 0,-0.30691 0.15875,-0.4445 0.158749,-0.14816 0.391582,-0.14816 z"
         id="path432"
         style="fill:#f4f8ff;fill-opacity:1;stroke:#0f1f2e;stroke-opacity:1" /><path
         d="m 34.355723,162.71699 q -0.751415,0 -1.34408,-0.30691 -0.582081,-0.30692 -0.920747,-0.9525 -0.328082,-0.64558 -0.328082,-1.65099 0,-1.04775 0.349249,-1.70392 0.349249,-0.65616 0.941914,-0.96308 0.603248,-0.30691 1.365245,-0.30691 0.433916,0 0.836081,0.0952 0.402165,0.0847 0.656165,0.21166 l -0.28575,0.77259 q -0.253999,-0.0952 -0.592664,-0.17992 -0.338666,-0.0847 -0.634998,-0.0847 -0.571498,0 -0.941914,0.24342 -0.370415,0.24341 -0.550332,0.71966 -0.179916,0.47625 -0.179916,1.18533 0,0.67733 0.179916,1.15358 0.179917,0.47625 0.539749,0.71967 0.359832,0.24341 0.89958,0.24341 0.465665,0 0.814914,-0.0952 0.359832,-0.0952 0.656165,-0.23283 v 0.8255 q -0.285749,0.14816 -0.634998,0.22225 -0.338666,0.0847 -0.825497,0.0847 z"
         id="path434"
         style="fill:#f4f8ff;fill-opacity:1;stroke:#0f1f2e;stroke-opacity:1" /><path
         d="m 39.308702,156.84326 q 1.037163,0 1.534578,0.45508 0.497415,0.45509 0.497415,1.44992 v 3.8629 h -0.677331 l -0.179916,-0.80433 h -0.04233 q -0.243416,0.30692 -0.507998,0.51858 -0.254,0.20108 -0.592665,0.29633 -0.328083,0.0953 -0.804331,0.0953 -0.507998,0 -0.920747,-0.17991 -0.402165,-0.17992 -0.634998,-0.55033 -0.232833,-0.381 -0.232833,-0.9525 0,-0.84667 0.666748,-1.30175 0.666748,-0.46566 2.05316,-0.508 l 0.963081,-0.0318 v -0.33866 q 0,-0.70908 -0.306916,-0.98425 -0.306916,-0.27516 -0.867831,-0.27516 -0.444498,0 -0.846664,0.13758 -0.402165,0.127 -0.751414,0.29633 l -0.285749,-0.6985 q 0.370416,-0.20108 0.878414,-0.33866 0.507998,-0.14817 1.05833,-0.14817 z m 0.275166,3.02683 q -1.05833,0.0423 -1.471079,0.33866 -0.402165,0.29633 -0.402165,0.83608 0,0.47625 0.285749,0.6985 0.296332,0.22225 0.751414,0.22225 0.719664,0 1.195913,-0.39158 0.476248,-0.40217 0.476248,-1.22767 v -0.50799 z"
         id="path436"
         style="fill:#f4f8ff;fill-opacity:1;stroke:#0f1f2e;stroke-opacity:1" /><path
         d="m 44.028859,162.61116 h -0.93133 v -8.04331 h 0.93133 z"
         id="path438"
         style="fill:#f4f8ff;fill-opacity:1;stroke:#0f1f2e;stroke-opacity:1" /><path
         d="m 3.8599511,172.05146 q 0,0.87842 -0.2222493,1.59808 -0.2222493,0.70908 -0.6667479,1.22766 -0.4339153,0.51859 -1.0900798,0.79375 -0.6455813,0.27517 -1.50282858,0.27517 -0.88899717,0 -1.54516172,-0.27517 -0.6561646,-0.28575 -1.0900799,-0.79375 -0.4339153,-0.51858 -0.6455813,-1.23824 -0.211666,-0.71967 -0.211666,-1.59808 0,-1.16416 0.3809988,-2.03199 0.3809988,-0.86783 1.1535797,-1.35467 0.78316416,-0.48683 1.96849372,-0.48683 1.13241308,0 1.90499398,0.48683 0.7725808,0.47625 1.1641629,1.35467 0.4021654,0.86783 0.4021654,2.04257 z m -5.968981,0 q 0,0.9525 0.2645825,1.64041 0.2645825,0.68792 0.8149141,1.05833 0.56091485,0.37042 1.40757882,0.37042 0.85724728,0 1.39699558,-0.37042 0.5503315,-0.37041 0.814914,-1.05833 0.2645825,-0.68791 0.2645825,-1.64041 0,-1.42874 -0.5926647,-2.23307 -0.5926648,-0.81492 -1.87324408,-0.81492 -0.85724727,0 -1.41816212,0.37042 -0.5503316,0.35983 -0.8149141,1.04775 -0.2645825,0.67733 -0.2645825,1.62982 z"
         id="path440"
         style="fill:#f4f8ff;fill-opacity:1;stroke:#0f1f2e;stroke-opacity:1" /><path
         d="m 8.1038555,170.0618 q 1.0477466,0 1.6827446,0.73025 0.6455809,0.73025 0.6455809,2.20133 0,0.96308 -0.296332,1.62983 -0.2857491,0.65616 -0.8149141,0.99483 -0.5185816,0.32808 -1.2276627,0.32808 -0.4339153,0 -0.7725809,-0.11642 -0.3386656,-0.11641 -0.5820815,-0.29633 -0.2328326,-0.1905 -0.4021654,-0.41275 h -0.0635 q 0.021167,0.17992 0.042333,0.45508 0.021167,0.27517 0.021167,0.47625 v 2.32833 H 5.4051141 v -8.21264 h 0.7619975 l 0.1269996,0.77258 h 0.042333 q 0.1693328,-0.24342 0.4021654,-0.4445 0.2434159,-0.20108 0.5714982,-0.3175 0.3386656,-0.11642 0.7937477,-0.11642 z m -0.1693328,0.78317 q -0.5714982,0 -0.9207471,0.22225 -0.3492489,0.21166 -0.5079984,0.64558 -0.1587495,0.43391 -0.1693328,1.10066 v 0.17992 q 0,0.69849 0.1481662,1.18533 0.1481662,0.48683 0.4974151,0.74083 0.3598322,0.254 0.9736636,0.254 0.5185817,0 0.846664,-0.28575 0.3386655,-0.28575 0.497415,-0.77258 0.1693328,-0.49742 0.1693328,-1.13242 0,-0.97366 -0.3809988,-1.55574 -0.3704154,-0.58208 -1.1535796,-0.58208 z"
         id="path442"
         style="fill:#f4f8ff;fill-opacity:1;stroke:#0f1f2e;stroke-opacity:1" /><path
         d="m 14.104584,170.0618 q 0.730248,0 1.24883,0.3175 0.529165,0.3175 0.80433,0.89958 0.285749,0.5715 0.285749,1.34408 v 0.56092 h -3.884071 q 0.02117,0.96308 0.486832,1.47108 0.476249,0.49741 1.322913,0.49741 0.539748,0 0.952497,-0.0952 0.423332,-0.10583 0.86783,-0.29633 v 0.81491 q -0.433915,0.1905 -0.857247,0.27517 -0.423332,0.0953 -1.005414,0.0953 -0.80433,0 -1.428745,-0.32808 -0.613831,-0.32809 -0.96308,-0.97367 -0.338666,-0.65616 -0.338666,-1.59808 0,-0.93133 0.306916,-1.59807 0.317499,-0.66675 0.878414,-1.02658 0.571498,-0.35984 1.322912,-0.35984 z m -0.01058,0.762 q -0.666748,0 -1.05833,0.43392 -0.380999,0.42333 -0.455082,1.18533 h 2.889241 q 0,-0.48684 -0.148166,-0.84667 -0.148167,-0.35983 -0.455082,-0.56091 -0.296333,-0.21167 -0.772581,-0.21167 z"
         id="path444"
         style="fill:#f4f8ff;fill-opacity:1;stroke:#0f1f2e;stroke-opacity:1" /><path
         d="m 20.528638,170.0618 q 0.15875,0 0.338666,0.0212 0.190499,0.0106 0.328082,0.0423 l -0.116416,0.85725 q -0.137583,-0.0318 -0.306916,-0.0529 -0.158749,-0.0212 -0.306916,-0.0212 -0.328082,0 -0.624414,0.13758 -0.296333,0.13758 -0.529165,0.39158 -0.232833,0.24342 -0.370416,0.59267 -0.126999,0.34925 -0.126999,0.78316 v 3.02682 h -0.931331 v -5.67264 h 0.761998 l 0.105833,1.03716 h 0.04233 q 0.179916,-0.3175 0.433915,-0.5715 0.254,-0.26458 0.582082,-0.41275 0.328082,-0.15875 0.719664,-0.15875 z"
         id="path446"
         style="fill:#f4f8ff;fill-opacity:1;stroke:#0f1f2e;stroke-opacity:1" /><path
         d="m 24.190456,170.07239 q 1.037164,0 1.534579,0.45508 0.497415,0.45508 0.497415,1.44991 v 3.8629 h -0.677331 l -0.179916,-0.80433 h -0.04233 q -0.243416,0.30692 -0.507998,0.51859 -0.253999,0.20108 -0.592665,0.29633 -0.328082,0.0953 -0.804331,0.0953 -0.507998,0 -0.920747,-0.17992 -0.402165,-0.17991 -0.634998,-0.55033 -0.232832,-0.381 -0.232832,-0.9525 0,-0.84666 0.666748,-1.30174 0.666748,-0.46567 2.05316,-0.508 l 0.96308,-0.0318 v -0.33867 q 0,-0.70908 -0.306916,-0.98424 -0.306915,-0.27517 -0.86783,-0.27517 -0.444499,0 -0.846664,0.13758 -0.402166,0.127 -0.751414,0.29634 l -0.28575,-0.6985 q 0.370416,-0.20108 0.878414,-0.33867 0.507999,-0.14816 1.05833,-0.14816 z m 0.275166,3.02682 q -1.05833,0.0423 -1.471079,0.33867 -0.402165,0.29633 -0.402165,0.83608 0,0.47624 0.285749,0.69849 0.296333,0.22225 0.751414,0.22225 0.719665,0 1.195913,-0.39158 0.476249,-0.40216 0.476249,-1.22766 v -0.508 z"
         id="path448"
         style="fill:#f4f8ff;fill-opacity:1;stroke:#0f1f2e;stroke-opacity:1" /><path
         d="m 29.873696,175.18412 q 0.211666,0 0.433915,-0.0318 0.222249,-0.0423 0.359832,-0.0847 v 0.70909 q -0.148166,0.0741 -0.423332,0.11641 -0.275166,0.0529 -0.529165,0.0529 -0.444498,0 -0.825497,-0.14817 -0.370416,-0.15875 -0.603248,-0.53975 -0.232833,-0.381 -0.232833,-1.06891 v -3.30199 h -0.804331 v -0.4445 l 0.814915,-0.37041 0.370415,-1.2065 h 0.550332 v 1.30175 h 1.640411 v 0.71966 h -1.640411 v 3.28082 q 0,0.51859 0.243415,0.77258 0.254,0.24342 0.645582,0.24342 z"
         id="path450"
         style="fill:#f4f8ff;fill-opacity:1;stroke:#0f1f2e;stroke-opacity:1" /><path
         d="m 32.731187,170.16764 v 5.67264 h -0.93133 v -5.67264 z m -0.455081,-2.12725 q 0.211666,0 0.370415,0.14817 0.169333,0.13758 0.169333,0.4445 0,0.29633 -0.169333,0.4445 -0.158749,0.14816 -0.370415,0.14816 -0.232833,0 -0.391583,-0.14816 -0.158749,-0.14817 -0.158749,-0.4445 0,-0.30692 0.158749,-0.4445 0.15875,-0.14817 0.391583,-0.14817 z"
         id="path452"
         style="fill:#f4f8ff;fill-opacity:1;stroke:#0f1f2e;stroke-opacity:1" /><path
         d="m 39.462162,172.99338 q 0,0.70908 -0.190499,1.25941 -0.179916,0.53975 -0.529165,0.92075 -0.338665,0.381 -0.836081,0.58208 -0.486831,0.1905 -1.090079,0.1905 -0.560915,0 -1.037164,-0.1905 -0.476248,-0.20108 -0.825497,-0.58208 -0.349249,-0.381 -0.550332,-0.92075 -0.190499,-0.55033 -0.190499,-1.25941 0,-0.94192 0.317499,-1.5875 0.317499,-0.65616 0.910164,-0.99483 0.592664,-0.34925 1.407578,-0.34925 0.772581,0 1.354663,0.34925 0.592665,0.33867 0.920747,0.99483 0.338665,0.64558 0.338665,1.5875 z m -4.286236,0 q 0,0.66675 0.169333,1.16416 0.179916,0.48683 0.550332,0.75141 0.370415,0.26459 0.941913,0.26459 0.571498,0 0.941914,-0.26459 0.370415,-0.26458 0.539748,-0.75141 0.179916,-0.49741 0.179916,-1.16416 0,-0.67733 -0.179916,-1.15358 -0.179916,-0.47625 -0.550331,-0.73025 -0.359833,-0.26458 -0.941914,-0.26458 -0.867831,0 -1.259413,0.5715 -0.391582,0.57149 -0.391582,1.57691 z"
         id="path454"
         style="fill:#f4f8ff;fill-opacity:1;stroke:#0f1f2e;stroke-opacity:1" /><path
         d="m 43.663725,170.0618 q 1.015997,0 1.534579,0.49742 0.518582,0.48683 0.518582,1.58749 v 3.69357 h -0.920748 v -3.63007 q 0,-0.68791 -0.306915,-1.02658 -0.306916,-0.33866 -0.96308,-0.33866 -0.941914,0 -1.301746,0.52916 -0.359833,0.52917 -0.359833,1.524 v 2.94215 h -0.93133 v -5.67264 h 0.751414 l 0.137583,0.77258 h 0.05292 q 0.190499,-0.29634 0.465665,-0.48683 0.285749,-0.20109 0.624415,-0.29634 0.338665,-0.0952 0.698497,-0.0952 z"
         id="path456"
         style="fill:#f4f8ff;fill-opacity:1;stroke:#0f1f2e;stroke-opacity:1" /><path
         d="m 51.167287,174.27396 q 0,0.55033 -0.275166,0.92074 -0.275165,0.37042 -0.783164,0.56092 -0.507998,0.1905 -1.206496,0.1905 -0.592665,0 -1.02658,-0.0953 -0.423332,-0.0952 -0.751414,-0.26458 v -0.84667 q 0.338665,0.16933 0.814914,0.3175 0.486832,0.13758 0.984247,0.13758 0.709081,0 1.02658,-0.22225 0.317499,-0.23283 0.317499,-0.61383 0,-0.21166 -0.116417,-0.381 -0.116416,-0.16933 -0.423331,-0.33866 -0.296333,-0.16933 -0.857248,-0.381 -0.550331,-0.21167 -0.941913,-0.42333 -0.391583,-0.21167 -0.603249,-0.508 -0.211666,-0.29633 -0.211666,-0.762 0,-0.71966 0.582082,-1.11124 0.592665,-0.39159 1.545162,-0.39159 0.518581,0 0.96308,0.10584 0.455082,0.0952 0.846664,0.27516 l -0.317499,0.74083 q -0.359832,-0.14816 -0.751414,-0.254 -0.391582,-0.10583 -0.804331,-0.10583 -0.571498,0 -0.878414,0.1905 -0.296332,0.17992 -0.296332,0.49742 0,0.23283 0.137583,0.40216 0.137582,0.15875 0.455081,0.3175 0.328083,0.14817 0.867831,0.35983 0.539748,0.20108 0.920747,0.41275 0.380999,0.21167 0.582082,0.51858 0.201082,0.29633 0.201082,0.75142 z"
         id="path458"
         style="fill:#f4f8ff;fill-opacity:1;stroke:#0f1f2e;stroke-opacity:1" /></g><g
       fill="#000000"
       fill-opacity="1"
       id="g858"
       transform="matrix(0.15620859,0,0,0.15620859,64.222027,69.658797)"
       style="fill:#ffffff"><g
         id="use854"
         transform="matrix(11.812853,0,0,11.812853,-17.485947,-34.471374)"
         style="fill:#000000"><path
           d="m 1.578125,-7.125 c 0,-0.171875 0,-0.359375 -0.1875,-0.359375 -0.203125,0 -0.203125,0.1875 -0.203125,0.359375 v 9.265625 c 0,0.171875 0,0.359375 0.203125,0.359375 0.1875,0 0.1875,-0.1875 0.1875,-0.359375 z m 0,0"
           id="path7098"
           style="fill:#ffffff" /></g><g
         id="use856"
         transform="matrix(11.812853,0,0,11.812853,337.69993,-34.471378)"
         style="fill:#000000"><path
           d="M 2.71875,-2.328125 C 2.765625,-2.4375 2.765625,-2.46875 2.765625,-2.5 c 0,-0.015625 0,-0.046875 -0.046875,-0.15625 L 0.984375,-7.25 c -0.0625,-0.171875 -0.125,-0.234375 -0.234375,-0.234375 -0.109375,0 -0.203125,0.09375 -0.203125,0.203125 0,0.03125 0,0.046875 0.046875,0.15625 L 2.359375,-2.5 0.59375,2.109375 C 0.546875,2.21875 0.546875,2.25 0.546875,2.296875 0.546875,2.40625 0.640625,2.5 0.75,2.5 0.875,2.5 0.921875,2.390625 0.953125,2.296875 Z m 0,0"
           id="path7076"
           style="fill:#ffffff" /></g><g
         aria-label="Libket"
         id="text308"
         style="font-size:117.394px;line-height:1.25;font-family:'Merriweather Sans';-inkscape-font-specification:'Merriweather Sans';stroke-width:2.93483;fill:#000000"><path
           d="M 7.7087612,-16.836361 V -104.0601 H 21.443859 v 76.306097 h 34.279047 v 10.917642 z"
           id="path409"
           style="fill:#ffffff" /><path
           d="m 69.575355,-16.836361 v -65.271062 h 13.500309 v 65.271062 z m 5.987093,-76.834371 q -3.404425,0 -5.987093,-2.171789 -2.523971,-2.171789 -2.523971,-5.928399 0,-2.58267 1.408728,-4.63706 1.467425,-2.11309 3.697911,-3.34573 2.230485,-1.29133 4.637062,-1.29133 4.167487,0 6.280579,2.34788 2.113092,2.34788 2.113092,5.7523 0,4.050095 -2.93485,6.69146 -2.876153,2.582668 -6.691458,2.582668 z"
           id="path411"
           style="fill:#ffffff" /><path
           d="m 103.67832,-112.04289 h 13.50031 v 26.648435 l -0.46957,11.504611 0.46957,0.352182 v 47.074993 l -13.50031,5.987094 z m 23.71359,96.263075 q -3.58052,0 -7.39582,-0.528273 -3.75661,-0.469576 -7.16104,-1.232637 -3.40442,-0.763061 -5.8697,-1.526122 -2.40657,-0.821758 -3.28703,-1.408728 l 13.50031,-7.395822 q 1.58482,1.115243 4.46097,1.76091 2.93485,0.58697 7.16104,0.58697 5.04794,0 9.03934,-2.817456 4.05009,-2.876153 6.39797,-8.39367 2.40658,-5.517518 2.52397,-13.559007 0.11739,-11.622006 -4.05009,-16.963433 -4.16749,-5.341427 -11.68071,-5.341427 -4.57836,0 -8.15888,1.76091 -3.58052,1.702213 -5.69361,3.287032 l -2.11309,-6.691458 q 1.35003,-1.408728 3.69791,-3.463122 2.34788,-2.113092 6.22188,-3.697911 3.874,-1.643516 9.8024,-1.643516 6.92625,0 12.79595,3.404426 5.8697,3.345728 9.45021,10.271974 3.58052,6.867549 3.58052,17.433009 0,10.624157 -4.16749,18.783039 -4.10879,8.158883 -11.622,12.795946 -7.45452,4.578366 -17.43301,4.578366 z"
           id="path413"
           style="fill:#ffffff" /><path
           d="m 230.52263,-82.224817 -42.73142,44.609719 1.17394,-3.169638 0.23479,11.269823 v 12.678552 h -13.14813 v -38.857413 -56.349116 h 13.14813 v 49.775052 l -0.46958,14.322068 -3.16963,-2.230486 29.11371,-32.048561 z m -34.51384,33.222501 9.15673,-8.80455 28.17456,40.970505 h -15.37861 z"
           id="path415"
           style="fill:#ffffff" /><path
           d="m 267.14956,-15.897209 q -14.08728,0 -21.71789,-8.921944 -7.63061,-8.921944 -7.63061,-24.770133 0,-9.508914 3.34573,-17.02213 3.40443,-7.513216 9.97849,-11.91549 6.63276,-4.402275 16.25907,-4.519669 4.93055,-0.117394 9.27413,1.408728 4.34358,1.526122 7.6893,4.637063 3.34573,3.052243 5.28273,7.748003 1.9957,4.69576 2.17179,10.976339 0,3.697911 -0.0587,6.632761 -0.0587,2.876153 -0.52828,5.106639 h -45.54887 l 1.17394,-8.569762 h 32.28335 q 0.29349,-4.69576 -0.58697,-8.863247 -0.82176,-4.226184 -3.63921,-6.808852 -2.75876,-2.641365 -8.21758,-2.641365 -4.57837,0 -8.21758,2.582668 -3.63922,2.523971 -5.63491,8.569762 -1.9957,6.045791 -1.64352,16.552554 0.35218,7.395822 2.99355,11.680702 2.64136,4.284881 6.92624,6.104488 4.28488,1.819607 9.56761,1.819607 2.23049,0 5.45882,-0.469576 3.22834,-0.528273 6.22189,-1.291334 3.05224,-0.821758 4.63706,-1.76091 l 2.58267,7.748004 q -2.17179,1.76091 -5.9284,3.110941 -3.69791,1.350031 -8.04149,2.113092 -4.34358,0.763061 -8.45237,0.763061 z"
           id="path417"
           style="fill:#ffffff" /><path
           d="m 325.84662,-15.897209 q -4.63707,0 -8.15889,-1.467425 -3.52182,-1.467425 -5.51751,-5.165336 -1.937,-3.756608 -1.937,-10.624157 v -39.092201 h -8.45237 v -7.278427 q 4.34358,-1.232637 6.63276,-2.054395 2.28918,-0.880455 3.34573,-3.697911 0.46957,-1.291334 1.05654,-3.052244 0.58697,-1.819607 1.29134,-3.991396 0.70436,-2.230486 1.52612,-4.813154 h 8.10019 v 14.909038 h 18.31346 v 9.978489 h -18.31346 v 31.931168 q 0,6.339275 0.52827,9.274125 0.58697,2.876153 2.11309,3.697911 1.58482,0.763061 4.63706,0.763061 1.64352,0 3.75661,-0.352182 2.17179,-0.410879 4.10879,-0.997849 1.9957,-0.58697 3.05225,-1.232637 l 2.23048,7.748004 q -1.76091,1.350031 -4.75446,2.641365 -2.93485,1.232637 -6.51536,2.054395 -3.52182,0.821758 -7.04364,0.821758 z"
           id="path419"
           style="fill:#ffffff" /></g></g></g></svg>
