<?xml version="1.0" encoding="UTF-8" standalone="no"?>
<!-- Created with Inkscape (http://www.inkscape.org/) -->

<svg
   width="248.44577"
   height="248.44577"
   viewBox="0 0 65.734613 65.734613"
   version="1.1"
   id="svg5"
   sodipodi:docname="ket.svg"
   inkscape:version="1.2 (dc2aedaf03, 2022-05-15)"
   xmlns:inkscape="http://www.inkscape.org/namespaces/inkscape"
   xmlns:sodipodi="http://sodipodi.sourceforge.net/DTD/sodipodi-0.dtd"
   xmlns="http://www.w3.org/2000/svg"
   xmlns:svg="http://www.w3.org/2000/svg">
  <sodipodi:namedview
     id="namedview22"
     pagecolor="#ffffff"
     bordercolor="#666666"
     borderopacity="1.0"
     inkscape:showpageshadow="2"
     inkscape:pageopacity="0.0"
     inkscape:pagecheckerboard="0"
     inkscape:deskcolor="#d1d1d1"
     showgrid="false"
     inkscape:zoom="1.8106203"
     inkscape:cx="16.845056"
     inkscape:cy="171.21204"
     inkscape:window-width="1920"
     inkscape:window-height="1011"
     inkscape:window-x="0"
     inkscape:window-y="32"
     inkscape:window-maximized="1"
     inkscape:current-layer="svg5" />
  <defs
     id="defs2">
    <g
       id="g847">
      <g
         id="glyph-0-0" />
      <g
         id="glyph-0-1">
        <path
           d="m 1.578125,-7.125 c 0,-0.171875 0,-0.359375 -0.1875,-0.359375 -0.203125,0 -0.203125,0.1875 -0.203125,0.359375 v 9.265625 c 0,0.171875 0,0.359375 0.203125,0.359375 0.1875,0 0.1875,-0.1875 0.1875,-0.359375 z m 0,0"
           id="path841" />
      </g>
      <g
         id="glyph-0-2">
        <path
           d="M 2.71875,-2.328125 C 2.765625,-2.4375 2.765625,-2.46875 2.765625,-2.5 c 0,-0.015625 0,-0.046875 -0.046875,-0.15625 L 0.984375,-7.25 c -0.0625,-0.171875 -0.125,-0.234375 -0.234375,-0.234375 -0.109375,0 -0.203125,0.09375 -0.203125,0.203125 0,0.03125 0,0.046875 0.046875,0.15625 L 2.359375,-2.5 0.59375,2.109375 C 0.546875,2.21875 0.546875,2.25 0.546875,2.296875 0.546875,2.40625 0.640625,2.5 0.75,2.5 0.875,2.5 0.921875,2.390625 0.953125,2.296875 Z m 0,0"
           id="path844" />
      </g>
    </g>
    <clipPath
       id="clip-0">
      <path
         clip-rule="nonzero"
         d="M 1,0 H 6 V 9.964844 H 1 Z m 0,0"
         id="path849" />
    </clipPath>
  </defs>
  <g
     id="layer1"
     transform="translate(7.5082281,-14.865659)">
    <g
       fill="#000000"
       fill-opacity="1"
       id="g858"
       transform="matrix(0.26458333,0,0,0.26458333,-0.53255462,64.642809)">
      <g
         id="use854"
         transform="matrix(11.812853,0,0,11.812853,-17.485947,-34.471374)"
         style="fill:#0d98ba;fill-opacity:1">
        <path
           d="m 1.578125,-7.125 c 0,-0.171875 0,-0.359375 -0.1875,-0.359375 -0.203125,0 -0.203125,0.1875 -0.203125,0.359375 v 9.265625 c 0,0.171875 0,0.359375 0.203125,0.359375 0.1875,0 0.1875,-0.1875 0.1875,-0.359375 z m 0,0"
           id="path7098"
           style="fill:#0d98ba;fill-opacity:1" />
      </g>
      <g
         id="use856"
         transform="matrix(11.812853,0,0,11.812853,166.50453,-34.471378)"
         style="fill:#00a59c;fill-opacity:1">
        <path
           d="M 2.71875,-2.328125 C 2.765625,-2.4375 2.765625,-2.46875 2.765625,-2.5 c 0,-0.015625 0,-0.046875 -0.046875,-0.15625 L 0.984375,-7.25 c -0.0625,-0.171875 -0.125,-0.234375 -0.234375,-0.234375 -0.109375,0 -0.203125,0.09375 -0.203125,0.203125 0,0.03125 0,0.046875 0.046875,0.15625 L 2.359375,-2.5 0.59375,2.109375 C 0.546875,2.21875 0.546875,2.25 0.546875,2.296875 0.546875,2.40625 0.640625,2.5 0.75,2.5 0.875,2.5 0.921875,2.390625 0.953125,2.296875 Z m 0,0"
           id="path7076"
           style="fill:#00a59c;fill-opacity:1" />
      </g>
      <g
         aria-label="ket"
         id="text3896"
         style="font-size:117.537px;line-height:1.25;font-family:'Merriweather Sans';-inkscape-font-specification:'Merriweather Sans';fill:#40e0d0;fill-opacity:1;stroke-width:2.9384">
        <path
           d="m 59.189939,-82.070687 -43.606228,43.371154 1.057833,-2.468277 0.235074,11.636163 v 12.811533 H 7.7087315 v -32.087601 -63.234905 h 9.1678865 v 54.654703 l -0.352611,11.518627 -2.585814,-1.645518 33.850656,-34.555879 z m -32.792824,30.794694 6.582072,-6.111924 29.03164,40.667803 H 50.962348 Z"
           style="font-weight:300;-inkscape-font-specification:'Merriweather Sans Light';fill:#40e0d0;fill-opacity:1"
           id="path7732" />
        <path
           d="m 96.684217,-15.779818 q -13.751829,0 -21.097892,-8.815275 -7.346063,-8.874044 -7.346063,-24.565233 0,-9.81434 3.408573,-17.395477 3.408573,-7.639905 9.931877,-11.988774 6.523304,-4.407638 15.926264,-4.466406 5.230394,-0.117537 9.461724,1.645518 4.29011,1.704286 7.34607,4.995322 3.11473,3.232268 4.81901,7.816211 1.76306,4.525175 1.8806,10.108182 0,3.055962 -0.0588,5.524239 -0.0588,2.409509 -0.41138,4.466407 H 73.999575 l 0.822759,-6.464536 h 37.141696 q 0.35261,-5.994387 -0.99907,-10.813404 -1.2929,-4.819017 -4.70148,-7.639905 -3.40857,-2.820888 -9.344189,-2.820888 -5.641776,0 -10.108182,3.055962 -4.466406,2.997194 -6.993452,9.638034 -2.468277,6.640841 -2.174435,17.395477 0.293843,8.403895 3.114731,13.457986 2.820888,5.054092 7.581137,7.346063 4.760248,2.233203 10.813404,2.233203 2.997196,0 6.405766,-0.76399 3.46734,-0.763991 6.46454,-1.880592 3.05596,-1.17537 4.76024,-2.291972 l 1.99813,6.229461 q -2.11566,1.763055 -5.75931,3.114731 -3.64365,1.351675 -7.99252,2.115666 -4.2901,0.76399 -8.345123,0.76399 z"
           style="font-weight:300;-inkscape-font-specification:'Merriweather Sans Light';fill:#40e0d0;fill-opacity:1"
           id="path7734" />
        <path
           d="m 155.68783,-15.779818 q -3.99626,0 -7.40484,-1.17537 -3.40857,-1.234138 -5.46547,-4.760248 -2.05689,-3.52611 -2.05689,-10.519562 V -74.90093 h -9.05035 v -5.289165 q 3.1735,-0.881528 6.17069,-1.469213 3.05596,-0.646453 3.81995,-2.644582 0.35261,-0.999065 0.76399,-3.291036 0.47015,-2.35074 0.9403,-4.936554 0.52892,-2.644583 1.1166,-4.583944 h 5.75931 v 14.9272 h 20.33391 v 7.287294 h -20.33391 v 37.25923 q 0,6.523303 0.82276,9.520497 0.82276,2.938425 2.70335,3.761184 1.93936,0.822759 5.17163,0.822759 1.99813,0 4.46641,-0.470148 2.46828,-0.528916 4.58394,-1.234138 2.17444,-0.763991 3.29104,-1.469213 l 1.64552,5.524239 q -1.64552,1.351676 -4.58395,2.585814 -2.93842,1.234139 -6.347,1.998129 -3.3498,0.822759 -6.34699,0.822759 z"
           style="font-weight:300;-inkscape-font-specification:'Merriweather Sans Light';fill:#40e0d0;fill-opacity:1"
           id="path7736" />
      </g>
    </g>
  </g>
</svg>
